<svg xmlns="http://www.w3.org/2000/svg" width="62" height="61" viewBox="0 0 62 61">
  <defs>
    <style>
      .cls-1 {
        fill: #39fbc7;
        fill-rule: evenodd;
      }
    </style>
  </defs>
  <path id="Shape_1106_copy_3" data-name="Shape 1106 copy 3" class="cls-1" d="M1557,1003.74L1619,943v61Z" transform="translate(-1557 -943)"/>
</svg>
