<?xml version="1.0" encoding="utf-8"?>
<!-- Generator: Adobe Illustrator 19.2.1, SVG Export Plug-In . SVG Version: 6.00 Build 0)  -->
<svg version="1.1" id="Layer_1" xmlns="http://www.w3.org/2000/svg" xmlns:xlink="http://www.w3.org/1999/xlink" x="0px" y="0px"
	 width="1726" height="1949" viewBox="0 0 1726 1949" style="enable-background:new 0 0 1726 1949;" xml:space="preserve">
<style type="text/css">
	.st0{fill:#F3F3F3;}
</style>
<path class="st0" d="M971.4,468.3l9.3-4.6l9.3,1.2c0.3,3.2,0.9,4.9,1.1,8.1v4.6l-4.7,2.3h-11.7L971.4,468.3z"/>
<path class="st0" d="M941,470.6c5,0,7.9-2,11.7-4.6c1.8-1.2,2.3-3.2,3.5-4.6l-1.2-4.6c-1.7,0.9-2.6,2.6-4.7,3.5
	c-1.4,0.6-3.2,0.6-4.6,1.1c-4.1,1.7-6.7,3.8-10.5,5.8C937.3,468.3,938.4,470.6,941,470.6z"/>
<polygon class="st0" points="1001.7,268 1009.8,262.2 1023.8,258.7 1009.8,249.4 987.7,248.3 972.5,248.3 974.8,258.7 978.3,266.8
	"/>
<path class="st0" d="M1044.8,1816.4c-0.7-0.1-1.7-0.1-2.3-0.6c-0.7-0.4-1.9-0.4-2.3-1.1c-0.5-0.6,0.3-1.6,0-2.3
	c-0.3-0.7-0.2-1.7-0.6-2.3c-0.7-0.9-1.2-1.7-2.3-1.7c-1,0-1.3,1.2-2.3,1.2v6.9c-1.6,0.3-3.4,0.3-4.7,1.2c-0.7,0.4-0.7,1.6-1.2,2.3
	c-0.6,0.9-2.3,0.6-2.3,1.7c0,2.9,2.5,4.8,5.3,5.2c0.7,0.1,1.5-0.6,2.3-0.6c0.9,0,1.6,0.4,2.3,0.6c0.7,0.1,1.6-0.2,2.3,0
	c1,0.3,0.9,1.7,1.8,2.3c-0.3,0.7-0.2,1.6-0.6,2.3c-0.6,1-2.3,1-2.3,2.3c0,1,1.2,1.3,1.2,2.3c0,0.9-0.2,1.5,0,2.3
	c2.5,0,4.2-0.3,6.4,0.6c1.7,0.7,2.9,1.4,4.6,2.3c-0.3,0.9-1,1.3-1.1,2.3c-0.2,0.9,0.2,1.5,0,2.4c-1.8,0-2.9-0.2-4.7,0
	c-0.9,0-1.6-0.2-2.3,0c-1.7,0.4-2.9,1.4-4.7,1.7c-1.6,0.1-3-0.3-4.6,0c-1,0.1-1.5,1.3-2.3,1.7c-1,0.6-2.3,1-2.3,2.3v1.2
	c0,1,1,1.4,1.2,2.3c0,0.7-0.1,1.6,0,2.3c0.1,0.7-0.1,1.6,0,2.3c0.1,0.9,1.9,0.4,2.3,1.2c0.7,1,1.8,2,1.8,3.5v1.2
	c-0.2,1-1.5,1.3-1.8,2.3c-0.3,0.9-1.2,1.3-1.2,2.3c0,2,2.3,2.5,3.5,4.1c1.2,1.6,2.3,2.6,2.3,4.6c0,1-2.3,0.2-2.3,1.2
	c0,0.9,0.1,1.6,0.6,2.3c0.4,0.7,1.6,0.6,2.3,1.1c0.7,0.6,1.6,0.6,2.3,1.2c0.6,0.4-0.3,1.6,0,2.3l-4.6,2.3l1.2,2.9
	c0.9-0.1,1.4-0.6,2.3-0.6h4.7c0.9,0,1.5,0.4,2.3,0.6c-0.4,1,0.3,2.2-0.6,2.9c-1.4,1.2-2.9,1.5-4.7,2.3c1.4,1.6,2.2,3.3,4.1,4.1
	c0.7,0.3,1.6-0.2,2.3,0c0.8,0.1,1.6-0.2,2.3,0c0.6,0.1-0.6,1.3,0,1.7l-2.3,1.7c0.6,0.7,1.2,1.4,1.8,2.3c0.6,0.8,1.9,0.7,2.3,1.7
	c0.4,1,0.3,1.9,0.6,2.9c0.1,0.7-0.9,1.6-0.6,2.3c0.4,1,1.5,1.1,2.3,1.7c2.2,1.6,4.7,1.3,7,2.9c0.9,0.6,1.7,0.9,2.3,1.7
	c0.5,0.6,0.3,1.6,0.6,2.3c0.3,0.7,0.3,1.6,0.6,2.3c0.5,0.9,1.6,0.7,2.3,1.1c1,0.7,2.6,0.6,2.9,1.8c0.1,0.7-0.7,1.6-0.6,2.3
	c0.1,1.2,0.4,2.2,0.6,3.5c1.7,0.1,2.9,0.4,4.7,0.6c0.9,0,1.6-0.3,2.3,0c0.7,0.2,1.7,0.1,2.3,0.5c0.6,0.4-0.3,1.7,0,2.3
	c1.1,1.8,2.2,3.3,4.1,4.1c1.6,0.6,3-0.3,4.6,0c0.9,0.1,1.5,1,2.3,1.2c0.8,0.1,1.6,0.4,2.3,0.6c0.7,0.1,1.6,0.4,2.3,0.6
	c1,0.3,1.3,1.5,2.3,1.7c1.6,0.4,2.9-0.2,4.7,0h2.3c1,0.1,1.3,1.4,2.3,1.7c1,0.3,1.9,0.6,3.1,0.6h18.5c1,0,1.3,1.1,2.3,1.1
	c1.2,0,1.5-1,2.3-1.7c0.6-0.4,0.2-1.7,0.6-2.3c0.8-0.9,1.5-1.6,2.4-2c1-0.6,2.2,0.3,3.5,0.3c1.8,0,2.9-0.2,4.6-0.3
	c-0.3-1.7,0.2-3.5-1.1-4.4c-0.9-0.6-1.9,0.3-2.9,0c-1.8-0.7-2.8-1.9-4.7-2.3c-0.7-0.2-1.6,0-2.3,0c-0.7,0-1.4-0.6-2.3-0.6
	c-2-0.2-3.2,0-5.2,0c-0.9,0-1.4-0.6-2.3-0.6v-5.2c-1.7,0-2.9,0.1-4.7,0c-0.9,0-1.7,0.5-2.3,0c-0.9-0.7-1.8-0.9-2.3-1.7
	c-0.6-0.9-0.3-1.9-0.6-2.9c-0.4-1.6-1-2.9-1.1-4.7c0-0.8,0.1-1.5,0-2.3c-0.2-0.7,0.3-1.6,0-2.3c-0.5-1-1.9-0.7-2.3-1.7
	c-0.4-0.9-0.9-1.5-1.2-2.3c-0.2-0.7,0-1.6,0-2.3v-2.3c-0.2-0.9-1-1.5-1.2-2.3c-0.2-1.6,0.1-3,0-4.6c0-0.7-0.5-1.6-0.6-2.3
	c-0.1-0.9-0.7-1.4-1.2-2.3c-0.7-1.3-2.8-1.3-2.8-2.9c0-1.4,1-2,1-3.5v-2.3c0-1-0.9-1.4-1.2-2.3v-7.5c0-2.2,0.5-3.3,0.6-5.5h11.7
	c0-1.4,0.2-2.3,0-3.8c0-0.9-0.6-1.5-0.6-2.3c0-1.8-0.1-3.2,0.6-4.6c0.6-1,0.9-1.8,1.7-2.3c0.6-0.4,1.6-0.4,2.3-0.6
	c1.6-0.4,3-0.1,4.7-0.6c1.2-0.3,1.7-1.3,2.3-2.3c2-3.3,2.3-5.7,3.5-9.2c0.2-0.8,0.3-1.6,0.6-2.4c0.4-0.9,1-1.6,1.8-2.3
	c0.6-0.6,1.5-0.7,2.3-1.2c0.9-0.4,1.3-1.3,2.3-1.7c0.7-0.3,1.6,0.3,2.3,0c0.9-0.4,0.6-1.7,1.2-2.3v-4.6c-1.3-0.2-2.2-0.6-3.5-0.6
	c-2,0-3.3,0.6-5.2,0c-0.9-0.3-1.6-0.6-2.3-1.2c-0.6-0.4-0.3-1.7-0.6-2.3c-0.7-1-1.3-1.9-2.3-2.3c-0.7-0.3-1.6-0.3-2.3-0.6
	c-1-0.4-1.5-1.2-2.3-1.7c-1.1-0.6-1.8-1.3-2.3-2.3c-0.6-0.8-1.5-1.3-1.8-2.3c-0.4-1.6-0.6-2.9-0.6-4.6v-2.3c0-1,0.7-1.5,1.2-2.3
	c0.6-1.2,1.5-1.4,2.3-2.3c2.2-2.1,3.9-4,7.1-4h13.8v-12.9c0-0.9,0.1-1.6,0.6-2.2c0.6-0.9,1.7-0.9,2.3-1.7c1-1.6,1.6-2.9,2.3-4.6
	c0.3-0.8,1-1.4,1.2-2.3c0.1-0.7,0-1.4,0-2.3c0-0.9-0.6-1.6-0.6-2.3c0-0.7,0.4-1.6,0.6-2.3c0.3-1.2,1-2.3,2.3-2.3
	c2.3,0,3.5,1.2,5.8,1.2c1.5,0,2.3-0.6,3.5-1.2c1-0.6,2-1.1,2.3-2.3c0.2-0.7,0-1.5,0-2.3v-2.3c0-1-0.9-1.4-1.2-2.3
	c-0.9,0.1-1.4-0.2-2.3,0c-1,0.1-1.5,0.7-2.3,1.2c-1.1,0.6-1.1,1.7-2.3,2.3c-0.7,0.3-1.6-0.1-2.3,0c-0.6-0.9-4-0.4-4.2-1.4
	c-0.3-1.6,0.2-2.9,0-4.6c-0.1-1.7-0.4-2.9-0.6-4.6c0-0.8-0.6-1.3-0.6-2.2v-7.1h3.9c2.1,0,3.1,0.8,4.8,1.7c2.1,1,2.5,3.5,4.8,3.5
	h14.4c0-1,1.2-1.3,1.2-2.3c0-1.2-1.6-1.3-1.8-2.3v-2.3c0-0.9-0.1-1.6,0-2.3c0.3-0.8,0.7-1.4,1.2-2.3c0.4-0.9,1.9-0.3,2.3-1.1
	c0.3-0.7,0-1.5,0-2.3c0-0.9,0.2-1.6,0-2.3c-0.3-1.8-1.3-2.9-1.7-4.6c-0.2-0.7-0.6-1.3-0.6-2.2v-5.4h10.9c1,0,1.4-0.6,2.5-0.6h4.7
	c1.7,0,3-0.1,4.6-0.6c1.9-0.5,2.8-1.7,4.8-1.7h11.4c2,0,2.8,1.7,4.8,1.7c1.2,0,1.6-0.9,2.3-1.7c0.4-0.6,0.3-1.6,0.6-2.3
	c0.3-0.7,0.3-1.6,0.6-2.3c0.4-1,1.3-1.4,1.7-2.3c1-1.7,1.8-3.2,2.9-4.6c0.7-0.9,1.9-1.2,2.9-1.7c1.7-1,3-1.7,4.6-2.9
	c0.9-0.6,1.2-1.4,1.8-2.3c0.6-0.8,1.2-1.3,1.8-2.3l1.1-2.3c0.4-0.8,1.2-1.1,1.2-2.2v-7.1h-2.3c-0.9,0-1.5-0.4-2.3-0.6v-4.6
	c0-0.9,0.1-1.6,0-2.3c-0.2-0.7-0.3-1.6-0.6-2.3c-0.3-1-1.6-1.2-2.3-1.7c-0.9-0.7-1.9-1.1-2.9-1.8c-1.9-1.2-2.9-2.8-4.7-4.1
	c-0.7-0.6-1.9-0.4-2.3-1.1c-0.6-0.9-1.2-1.5-1.7-2.3c-0.3-0.6,0.1-1.6,0-2.3h9.2c2,0,3.5,0.6,5.4,1.2c2.2,0.7,2.6,2.4,4.7,3.5
	c1,0.4,1.3,1.6,2.3,1.7c0.7,0.2,1.6-0.1,2.3,0c2.6,0.6,4.2,1.2,7,1.2c0.9,0,1.6,0.1,2.4,0c1.1-0.3,1.1-2,2.3-2.3
	c1.6-0.3,2.9,0,4.7,0c1.7,0,3,0.5,4.6,0c1-0.3,1.3-1.3,2.3-1.7c0.7-0.3,1.7-0.1,2.3-0.6c0.9-0.7,1.2-1.5,1.8-2.3
	c1.1-1.6,1.5-2.9,2.3-4.6c0.4-0.9,0.7-1.6,1.2-2.3c0.6-1,1.3-1.7,2.3-2.3c0.7-0.4,1.6-0.3,2.3-0.6c1.2-0.6,2.2-0.7,2.9-1.7
	c0.6-0.9,1.5-1.3,1.7-2.3c0.2-0.7,0.5-1.6,0.6-2.3c0.3-1.6,0-2.9,0-4.6c1.3-1.7,3-2.6,4.1-4.6c0.4-1,1.6-1.3,1.7-2.3
	c0.4-2.6-0.1-4.2,0-6.9c0-0.9,0.6-1.6,0.6-2.3c0-0.7-0.1-1.6,0-2.3c0.3-0.9,0.7-1.6,1.2-2.3c1-1.6,2.3-2.8,4.1-3.5
	c0.9-0.3,1.3-1.2,2.3-1.2c1,0,1.3,1,2.3,1.2c-0.3,0.9-0.9,1.5-1.1,2.3c-0.2,0.7-0.5,1.6-0.6,2.3c-0.2,0.9-1.2,1.3-1.2,2.3
	c0,1.1,1.4,1.3,1.8,2.3c1.7-0.9,3.3-1,4.6-2.3c0.6-0.6,0.7-1.6,1.2-2.3c1-1.6,1.4-2.9,2.3-4.6c0.4-0.9,0.7-1.6,1.2-2.3
	c0.6-1,1.8-1.3,2.3-2.3c0.4-0.7,0.7-1.5,1.1-2.3c0.5-1,1.3-1.3,1.8-2.3c0.3-0.7,0.4-1.6,0.6-2.3c0.3-0.9,1-1.4,1.2-2.3
	c0.2-0.7-0.2-1.6,0-2.3c0.3-0.9,0.7-1.6,1.2-2.3c0.6-0.9,0.9-1.7,1.8-2.3c0.6-0.4,1.6-0.3,2.3-0.6c0.7-0.3,1.6-0.5,2.3-0.6
	c1-0.3,1.4-1.1,2.3-1.7c1-0.6,1.7-1.2,2.3-2.4c0.4-0.9,1.2-1.3,1.2-2.3c0.1-1.7,0-2.9,0-4.6c0-1.7,0.3-3,0-4.6
	c-0.3-1.7-1.5-2.9-1.8-4.6c-0.1-0.7,0-1.5,0-2.3c0-1.2-0.6-1.8-0.6-2.9c-0.1-2,0-3.2,0-5.2c0-2-0.6-3.3,0-5.2
	c0.2-0.9,0.7-1.5,1.2-2.3c0.4-1,1.6-1,2.3-1.8c0.9-0.9,1.3-1.6,2.3-2.3c1.6-1.1,2.9-1.9,4.7-2.9c0.7-0.3,1.6-0.3,2.3-0.6
	c0.9-0.5,0.6-1.6,1.2-2.3c0.9-1,1.4-1.7,2.3-2.9c0.6-0.9,1.2-1.4,1.8-2.3c0.6-1,1-2,1.7-2.9c0.7-0.9,1.5-1.2,2.3-1.7
	c0.9-0.6,1.3-1.8,2.5-1.8h11.4c2.2,0,3.2-1.7,4.8-2.9c0.9-0.6,1.6-0.9,2.3-1.7c0.6-0.7,0.6-1.6,1.2-2.3c0.7-0.9,1.6-1,2.3-1.7h28.6
	c0.1-1.3,0.3-2.3,0.6-3.5c0.2-0.7-0.1-1.6,0-2.3c0.3-1.2,1.3-1.6,2.3-2.3c0.6-0.3,1.8-0.1,2.3-0.6c0.7-0.6,0.6-1.6,1.2-2.3
	c1.5-1.8,2.3-2.8,3.5-4.6c1-1.6,2.2-2.9,2.9-4.6c0.3-0.7-0.3-1.6,0-2.3c0.6-1,0.9-1.6,1.8-2.3c1.3-1,3.5-0.1,4.6-1.1
	c1.2-1,0.9-2.9,1.2-4.6c0.2-3.2,0.6-6.5,1.8-9.2c0.3-0.9,0.7-1.6,1.2-2.3c0.4-0.7,0.6-1.6,1.2-2.3c0.4-0.6,1.9,0,2.3-0.6
	c0.6-0.7,0.7-1.5,1.1-2.3c0.5-0.9,1-1.4,1.2-2.3c0.1-0.7,0-1.6,0-2.3c0.1-1.6,0.6-2.9,0.6-4.6c0-2.7-0.1-4.2,0-6.9
	c0-0.9,0.6-1.6,0.6-2.3v-2.3c0.1-0.9,0.9-1.4,1.1-2.3c0.6-2,1.7-3.2,2.3-5.2c0.1-0.7,0.4-1.6,0.6-2.3c0.2-0.7,0.6-1.6,0.6-2.3
	c0-0.7,0.5-1.4,0.6-2.3c0.2-1.3,0-2.2,0-3.5v-3.5c-0.1-2.4-1.2-3.5-1.2-5.8v-5.2c0-0.9-0.6-1.3-0.6-2.2v-14c0.9-0.2,1.6-0.4,2.3-0.6
	c0.7-0.1,1.6,0.2,2.3,0c1-0.3,1.3-1.3,2.3-1.7c0.9-0.4,1.6-0.7,2.3-1.2c2.5-1.7,4.2-3.4,5.2-6.4c0.3-1,0.3-1.9,0.6-2.9
	c0.4-1.7,0.7-3.2,1.8-4.6c0.6-0.9,0.9-1.9,1.7-2.3c0.7-0.4,1.6,0.3,2.3,0c0.7-0.3,1.6-0.4,2.3-0.6c2.3-0.9,2.7-3.2,4.7-4.6
	c0.6-0.3,1.8,0,2.3-0.5c1.3-1.3,1.5-2.9,2.3-4.7c1.9-3.7,3.4-6.1,5.3-9.8c0.3-0.7,0.3-1.6,0.6-2.3c0.5-1,1.7-1,2.3-1.7
	c0.6-0.7,1.9-0.7,2.3-1.7c0.3-0.7,0.3-1.6,0.6-2.3l1.1-2.3c1-2,2.6-2.9,2.9-5.2c0.1-1.3,0-2.2,0-3.5c0-1.3,0.1-2.3,0-3.5
	c-0.1-1-1.3-1.3-1.8-2.3c-1-2-2-3-2.9-5.2c-0.3-1.6-2.2-4.1-2.3-5.8c-0.2-1.7,0-2.9,0-4.6c0-2,0.2-3.5-0.6-5.2
	c-0.4-1-0.9-1.7-1.7-2.3c-1.6-1-2.8-2.3-4.8-2.3h-11.4c-1,0-1.6-0.4-2.5-0.6c-0.9-0.2-1.5-1-2.3-1.2c-1-0.2-1.9,0.2-2.9,0
	c-0.7-0.2-1.6-0.4-2.3-0.6c-1.9-0.6-3.1-1.3-4.7-2.3c-0.7-0.5-1.8-0.5-2.3-1.1c-0.4-0.6-0.3-1.6-0.6-2.4c-0.7-1.6-1.2-2.8-1.7-4.6
	c-0.1-0.7,0.1-1.6,0-2.3c-0.3-1-1.6-1-2.3-1.7c-0.9-0.9-1.9-1-2.9-1.7c-1-0.7-1.3-1.8-2.3-2.3c-0.7-0.4-1.6-0.4-2.3-0.6
	c-1.2-0.4-2.2-0.6-3.5-0.6c-2.4,0-3.7,1.7-6,1.7h-14.3c-1.2,0-2-0.1-3.1-0.6c-2-0.9-2.6-2.5-4.7-3.5c-0.9-0.4-1.4-0.9-2.3-1.1
	c-1.7-0.6-2.9-0.6-4.8-0.6c-2.2,0-3.5,0.3-5.7,0.6c0,2.7,0,4.2-0.3,6.9c-1.3,0-1.9,0.1-3.2,0c-0.9,0-1.6-0.6-2.3-0.6
	c-0.7,0-1.6,0.1-2.3,0c-0.9-0.1-1.5-0.7-2.4-1.2c-0.9-0.4-1.6-0.7-2.3-1.2c-0.6-0.4-0.2-1.6-0.6-2.3c0.9-0.7,0.9-1.9,1.8-2.3
	c0.7-0.4,1.6-0.1,2.3-0.6c0.9-0.4,1.4-1.3,2.3-1.7l-1.1-2.3c-0.9-0.1-1.6,0.1-2.4,0c-0.9-0.1-1.4-1-2.3-1.2c-1-0.3-1.9-0.3-2.9-0.6
	c-1-0.3-1.4-1.2-2.3-1.7c-1-0.6-1.9-1-2.9-1.7c-0.9-0.6-0.9-1.7-1.8-2.3c-0.6-0.3-1.6-0.3-2.3-0.6c-1.1-0.6-2.2-1.6-3.5-1.7
	c-1-0.2-1.7,0-2.9,0c-0.9,0-1.6-0.6-2.3-0.6h-2.3c-0.9-0.2-1.5-0.9-2.3-1.2c-1.3-0.4-2.2-1.2-3.5-1.8c-1.8-0.7-3.4-1.2-5.4-1.2
	c-1.9,0-2.9,0.3-4.8,0.6v11h-9.6v-4.6c0.3-0.7,0.1-1.6,0.6-2.3c0.6-1.1,1.4-1.6,2.3-2.3c0.7-0.6,0.9-1.6,1.7-2.3
	c0.6-0.4,2.1,0,2.3-0.6c0.9-1.3,0.4-2.9,0.6-4.6c-1.7-0.2-3,0-4.7-0.6c-1-0.3-1.3-1.4-2.3-1.7c-1.6-0.6-3.1-0.7-4.7-1.2
	c-1-0.3-1.8-1.1-2.9-1.1h-2.5h-2.2c-1.2,0-1.8,0.4-2.9,0.6c0,1.7,0.1,2.9,0,4.7c0,0.9,0.1,1.6,0,2.3c-0.9,2.3-2.8,3.5-5.3,3.5
	c-1.6,0-2.5-0.4-4.1-0.6v-4.6c0-0.9,0.6-1.5,0.6-2.3c0-0.9-0.5-1.5-0.5-2.3c2.6,0,4.5,0.6,6.9-0.6c0.7-0.3,1.7-0.2,2.3-0.6
	c0.7-0.6,0.9-1.4,1.2-2.3c0.6-1.6-0.1-2.9,0-4.6c0.1-1.8,0.4-2.9,0.6-4.6c0.1-1.3,0.6-2,0.6-3.3c0-2.4-0.4-3.7-0.6-6.2
	c-1.3,0-2.2,0.3-3.5,0.3c-0.9,0-1.4-0.6-2.3-0.6c-0.7,0-1,0.3-1.8,0.3v-12.6c0-1-1-1.3-1.2-2.2c-0.1-1-0.3-1.9-0.6-2.9
	c-0.1-0.7-0.3-1.6-0.6-2.3c-0.5-1.1-1.9-1.1-2.3-2.3c-0.3-0.7,0.3-1.7,0-2.3c-0.6-0.9-0.9-1.7-1.8-2.3c-0.6-0.4-1.6,0.3-2.3,0
	c-1.8-0.7-5-2.2-6.7-3c-0.7-0.6-1.9-0.3-2.3-1.2c-0.9-1.6-0.4-3.5-1.7-4.6c-0.6-0.4-1.6-0.1-2.3-0.6c-0.7-0.4-1.5-0.7-2.3-1.2
	c-0.9-0.4-0.7-1.9-1.7-2.3c-1.7-0.7-3.2,0.2-5.2,0c-1.2,0-1.9-0.7-2.9-1.1c-1.1-0.6-1.9-1.3-2.9-1.7l-2.3-1.2
	c-1.3-0.6-2-1.8-3.5-1.8c-1.3,0-2.5,0.1-3.5,0.6c-1,0.4-0.9,1.7-1.8,2.3c-1.9,1.3-3.8,0.6-6.1,0.6h-3.8c-0.9,0-1.5-0.6-2.3-0.6
	c-1.7-0.2-3.1-0.2-4.7-0.6c-1.9-0.6-2.9-1.6-4.7-2.3c-0.7-0.3-1.6-0.3-2.3-0.6c-1.7-0.7-3-2-4.6-2.9c-1.9-1.2-3.5-1.4-5.2-2.9
	c-0.9-0.7-1.2-1.4-1.8-2.3c-0.6-1-1.6-1.7-1.7-2.9c-0.4-2.6,0-4.2,0-7c-1.2-0.1-1.9-0.4-2.9-0.6c-0.7-0.2-1.6,0.1-2.3,0
	c-1-0.3-1.3-1.3-2.3-1.7c-0.9-0.4-1.6-0.8-2.3-1.2c-1-0.6-1.5-1.5-2.3-2.3c-0.7-0.7-1.8-0.4-2.3-1.1c-0.5-0.6,0.6-1.9,0-2.3
	c-0.6-0.4-1.6,0.3-2.3,0c-1-0.4-2.1-1-2.9-1.7c-0.7-0.6-2-0.7-2.3-1.7c-0.3-0.7-0.5-1.6-0.6-2.3c-0.4-1.9,0-3.2,0-5.2h-2.3
	c-1.6,0.3-3,0.7-4.6,1.2c-1.8,0.6-2.9,1.6-4.7,1.7c-0.7,0-1.5,0.6-2.3,0.6c-1.1,0-2.6-0.1-2.9-1.1c-0.3-0.7,0.1-1.6,0-2.3
	c-0.6-2.2-0.4-3.5-0.6-5.8l2.9-0.6c1-0.3,1.3-1.3,2.3-1.7c-0.9-1.2-1-2.3-2.3-2.9c-1-0.5-1.9-0.3-2.9-0.6c-0.9-0.3-1.4-0.8-2.3-1.2
	c-1-0.3-1.9-0.3-2.9-0.6l-5.2,4h-1.2c-0.9-0.3-1.5-0.9-2.3-1.2c-1.6-0.4-2.6-1.2-4.4-1.2c-1.6,0-2.9,0-3.8,1.2
	c-0.5,0.6-0.3,1.6-0.6,2.3c-0.3,0.7-0.3,1.6-0.6,2.3c-0.3,0.9-0.7,1.6-1.2,2.3c-1,1.6-2,3.5-4.1,3.5c-1.2,0-1.9,0-2.9-0.6
	c-0.9-0.5-0.6-1.6-1.1-2.3c-0.6-0.7-1.2-1.4-1.8-2.3c-0.6-0.9-0.7-1.9-1.8-2.3c-1.8-0.8-3.4-1.3-5.2-1.7c-1-0.1-1.9-0.6-3.1-0.6
	h-11.9c-1,0-1.6-1-2.5-1.1c-2.2-0.6-3.5-0.7-5.8-1.2v-6.9c-1.7,0-2.9,0.1-4.6,0c-1,0-1.5-0.8-2.3-1.2c-1-0.3-2-0.6-2.9-1.2
	c-0.9-0.6-0.7-1.9-1.7-2.3c-0.7-0.3-1.6-0.4-2.3-0.6c-2.9-1-4.9-1.1-8.1-1.7c0,1.7,0.1,2.9,0,4.6c0,1.2-0.6,2.2-1.2,2.9
	c-0.6,0.7-0.7,2.2-1.7,2.3c-1.6,0.3-3.1-0.3-4.7,0c-1,0.1-1.3,1.3-2.3,1.7c-1,0.4-1.4,1-2.3,1.7c-0.9,0.7-2.3,1-2.3,2.3
	c0,0.9,0.6,1.4,0.6,2.3c0,0.9,0.4,1.6,0.6,2.3c0.1,0.7,0,1.6,0,2.3c0.1,0.9,1,1.5,1.2,2.3c0.2,1.1,0,2.2,0,3.4c0,1.3,0.2,2.2,0,3.5
	c-0.1,1.1-0.9,1.9-1.2,2.9c-0.7-0.6-1.6-0.5-2.3-1.2c-0.7-0.7-0.6-1.6-1.2-2.3c-1.6-2-2.6-3.5-3.5-5.8c-0.7-1.9-1.2-3.2-1.2-5.2
	c0-0.9-0.1-1.6,0-2.3c0.3-1,1.5-1.3,1.8-2.3c0.1-0.7,0.4-1.6,0.6-2.3c0.1-0.7,0.6-1.5,0.6-2.3c0-1.4-1.8-2-1.8-3.5
	c0-2.7,2.2-4.1,4.1-5.8c0.7-0.6,1.6-1.1,2.3-1.7c0.7-0.6,1-1.7,1.7-2.3c0.7-0.6,1.6-0.7,2.3-1.2l-1.2-2.3h-5.1c-1,0-1.6,0.4-2.5,0.5
	c-0.7,0.2-1.6,0.3-2.3,0.6c-0.9,0.4-1.8,0.4-2.3,1.2c-0.5,0.6-0.5,1.6-0.6,2.3c-0.5,1.9,0,3.2,0,5.2h-13.3c-2.2,0-3.1,1.7-4.8,2.9
	c-0.9,0.6-1.3,1.3-2.3,1.7c-1,0.4-1.9,0.9-2.9,1.2c-1,0.3-1.9,1-2.9,1.1c-1.9,0.4-3.3,0.9-5.3,1.2c-0.7,0-1.4,0.6-2.3,0.6
	c-1.7,0.1-2.9,0-4.6,0v13.3c-1.6,1.6-2.5,3-4.7,3.5c-0.7,0.2-1.6,0.6-2.3,0.6c-1.6,0.1-2.9,0-4.7,0c0,1.3,0.3,2.3,0,3.5
	c-0.3,0.9-0.9,1.5-1.2,2.3c-0.3,0.9-0.9,1.5-1.2,2.3c-0.3,0.7,0.3,1.6,0,2.3c-0.3,1-1.8,1-2.3,1.8c-1.4,1.6-3.2,1.8-4.6,3.5
	c-0.6,0.7-1.9,0.7-2.3,1.7c-0.3,0.7,0.3,1.6,0,2.3c-0.5,1-1.7,1.2-2.3,2.3c-0.3,0.7,0,1.4-0.1,2.2c0,0-0.8,2.2,0,2.3
	c0.7,0.1,1.6-0.1,2.3,0c1,0.3,1.8,0.4,2.9,0.6c0,3.6-0.6,5.8,0,9.2c0,0.7,0.4,1.6,0.6,2.3c0.6,1.9,1.6,2.9,2.3,4.6
	c0.3,0.7,0.4,1.6,0.6,2.3c0.3,1.1,0.6,2.2,0.6,3.5s-0.2,2.3-0.6,3.5c-0.4,1-1.6,1-2.3,1.8c-1,1-2.6,1-2.9,2.3c-0.2,0.7,0,1.4,0,2.3
	c-0.2,1.7,0.6,2.9,0.6,4.6c0,2,0,3.3-0.6,5.2c-0.3,1.2-1.5,1.6-2.3,2.3c-0.9,0.7-0.7,2-1.7,2.3c-0.7,0.1-1.6-0.1-2.3,0
	c-1.6,0.3-2.9,0.4-4.7,0.6l-0.6,3.5c0.4,1,1.4,1.3,1.7,2.3c0.2,0.7-0.1,1.6,0,2.3c-2.8,1.3-4.5,2.5-7,4l-0.6,4.7
	c-0.7,0.1-1.6,0.4-2.3,0.6c-1.8,0.4-3.2,0.6-4.7,1.7c-0.9,0.7-1.2,1.4-1.7,2.3c-1.9,2.9-1.8,5.7-1.8,9.2h-9.9c0.3,2.8,0.9,4.2,0.6,7
	c-0.1,1.7-0.6,2.9-0.6,4.6c0,0.9-0.6,1.5-0.6,2.3c0,1,0.6,1.5,0.6,2.5c0,1-0.6,1.9-0.6,2.8c0.3,1.9,1.3,2.9,2.3,4.6
	c0.9-0.4,1.5-0.9,2.3-1.1c1.3-0.4,2.2-1.2,3.7-1.2c2,0,3,0.4,5.1,0.6v4.6c-0.6,0.7-0.4,1.9-1.1,2.3c-1.6,1-2.9,1.4-4.7,1.7
	c-0.7,0.1-1.4,0-2.3,0c-1.2,0.1-1.7,0.4-2.9,0.6c0,1.7,0.4,3,0,4.6c-0.1,0.7,0,1.9-0.6,2.3c-0.7,0.6-1.6,0.6-2.3,1.1
	c-0.9,0.7-1.5,1.2-2.3,1.8c-0.9,0.6-1.9,0.7-2.3,1.7c-0.4,1-0.6,2.2-0.6,3.5c0,1.3,0.3,2.3,0.6,3.5c0.3,1,1.3,1.3,1.8,2.3
	c0.4,1,1.6,1.3,1.8,2.3v2.3c0.1,2-0.2,3.2,0,5.2c0,0.9-0.3,1.6,0,2.3c0.4,1,0.9,1.6,1.7,2.3c0.7,0.6,1.5,0.9,2.3,1.2
	c0.7,0.1,1.7,0,2.3,0c0.7,0,1.6-0.2,2.3,0c0.9,0.1,1.4,0.9,2.3,1.1c0.9,0.3,1.6,0.8,2.3,1.2c1,0.6,1.6,1.3,2.3,2.3
	c0.4,0.7,0.7,1.5,1.2,2.3c0.4,1,1.2,1.9,1.7,2.9c0.4,0.7,0.6,1.6,1.2,2.3c0.7,0.9,1.9,0.9,2.3,1.8c0.4,0.7,0.9,1.4,1.1,2.3
	c0.4,1.6-0.1,2.9,0,4.6c0,0.9,0.4,1.6,0.6,2.3c0.1,0.7,0.1,1.6,0.6,2.3c0.4,0.8,1.8,1,2.3,1.7c0.6,0.7,1.2,1.6,1.8,2.3
	c0.6,0.7,1.9,0.9,2.3,1.7c0.7,1.4,0.6,2.9,0.6,4.6v5.2c0.4,0.9,1.3,2.1,1.8,2.9c0.4,0.7,0.7,1.6,1.1,2.3c0.6,0.9,1.8,0.9,2.4,1.7
	c1.7,2.2,2.7,4,2.9,6.9c0.2,2.9-0.6,5,0.6,7.5c0.3,0.9,0.7,1.6,1.2,2.3c0.4,0.7,1.7,0.6,2.3,1.2c0.6,0.6,0.4,1.7,1.2,2.3
	c0.7,0.6,1.6,0.7,2.3,1.2c0.9,0.6,1.5,1.2,2.3,1.7c0.7,0.5,1.7,0.5,2.3,1.2c0.6,0.7,0.9,1.4,1.2,2.3c0.1,0.7,0,1.4,0,2.3
	c0.1,2.3-0.2,3.5,0,5.8c0,1.2,0.4,1.9,0.6,2.9c0.2,0.7-0.3,1.6,0,2.3c0.4,1,1.9,0.8,2.3,1.7c1,1.6,1.3,2.9,2.3,4.6
	c0.4,0.9,0.6,1.6,1.2,2.3c0.6,0.7,1.4,1,2.3,1.7c0.7,0.6,1.4,0.7,2.3,1.2c1,0.6,1.9,1.1,2.9,1.8c0.9,0.4,1.3,1.4,2.3,1.7
	c0.7,0.1,1.6,0.4,2.3,0.6c1.6,0.3,3-0.3,4.7,0c1,0.1,1.4,1.3,2.3,1.7c1,0.6,1.5,1.4,2.3,2.3c0.7,0.7,0.9,1.7,1.8,2.3
	c0.7,0.4,1.6,0.7,2.3,1.1c0.9,0.6,1.4,1.2,2.3,1.7c1.9,1.2,2.6,2.5,4.6,3.5c1.6,0.8,2.9,1.2,4.7,1.8c0.9,0.3,1.5,0.9,2.3,1.2
	c2.2,1,3.6,1.6,5.3,3.4c0.6,0.8,0.6,1.6,1.2,2.3c0.7,1,1.6,1.4,2.3,2.3c1.4,1.7,2.3,3.2,4.1,4.6c0.9,0.7,0.7,2.2,1.8,2.3
	c0.7,0.1,1.6,0,2.3,0c1.6,0.1,2.8,0,4.5,0v24.2c0,1.9-0.9,2.9-1,4.8c0,1.3,0.6,2.2,0.6,3.5c0,0.4-0.6,0.7-0.6,1.2v2.3
	c0.1,2.2,1.1,3.5,1.1,5.6v1.3c0,1-1,1.4-1.1,2.3c-0.2,0.7,0.1,1.6,0,2.3c-0.2,0.9-1,1.3-1.2,2.3c-0.2,1.6,0.6,2.3,0.6,3.9
	c0,0.3-0.6,0.4-0.6,0.7v2.9c0,1,1.2,1.4,1.2,2.3c0.1,1.2,0,2,0,3.3v1.3v2.3c-0.2,1.2-1.6,1.6-1.8,2.9c-0.3,2,0,3.2,0,5.2
	c0.4,1,1.6,1.9,1.8,2.9v2.3v2.3c-0.2,0.9-1,1.5-1.2,2.3c-0.2,0.7,0.1,1.6,0,2.3c-0.2,0.7-0.4,1.6-0.6,2.3c-0.2,0.9-0.9,1.4-1.2,2.3
	c-0.3,1-0.7,1.9-1.1,2.9c-1,2.2-2,3.6-2.9,5.8c-0.3,1-1,1.7-1.2,2.9c-0.2,1.7,0,2.7,0,4.5c0,0.6-0.6,0.8-0.6,1.3
	c0,2.3,0.4,3.5,0.6,5.8c0,0.9,0.6,1.4,0.6,2.3c0,1-0.6,1.7-0.6,2.8c0,1.1,0.6,1.9,0.6,3c0,0.9-0.4,1.6-0.6,2.3
	c-0.2,1.2-1.3,1.7-1.8,2.9c-0.3,0.7-0.3,1.6-0.6,2.3c-0.5,1-1.3,1.5-1.8,2.3c-0.7,1.1-1.6,1.9-2.3,2.9c-1.8,2.2-3.5,3.8-3.5,6.7v1.4
	c0,0.9,0.6,1.6,0.6,2.3c0,0.7-0.1,1.6,0,2.3c0.3,0.8,0.7,1.4,1.2,2.3c0.4,1,1.3,1.4,1.8,2.3c1.7,3.2,2.9,5.5,2.9,9.3
	c0,3.6-1,5.8-1.8,9.2c-0.1,0.7-0.6,1.5-0.6,2.3c-0.3,2.8,0.3,4.3,0,6.9c-0.3,1.9-1,3.5-1.8,5.2c-0.3,0.7-0.3,1.6-0.6,2.3
	c-0.4,1.2-2,1.2-2.3,2.3c-0.3,1,0.3,1.9,0,2.9c-0.3,0.9-0.9,1.5-1.2,2.3c-0.3,1-1.2,1.4-1.8,2.3c-0.7,1-1.6,1.3-2.3,2.3
	c-0.3,0.6-1.8,0.9-1.8,1.8v4.6c0,1.2,0.6,1.7,0.6,2.9c0,1.5-0.6,2.2-0.6,3.6c0,0.6,0.6,1,0.6,1.6c0,0.9,0.1,1.6,0,2.3
	c-0.3,1-1.3,1.3-1.8,2.3c-0.4,0.9-0.7,1.6-1.2,2.3c-0.6,1-1.9,1.3-2.3,2.3c-0.4,1-0.4,1.7-0.6,2.9c-0.9,0.9-2.6,2-3.5,2.9
	c-0.7,0.7-1.9,0.9-2.3,1.7c-0.4,0.9-1,1.5-1.1,2.3c-0.2,0.7-0.6,1.5-0.6,2.3c0,1.3,1.9,1.2,2.3,2.3c0.1,0.7-0.2,1.6,0,2.3
	c0.6,1.7,1.4,2.9,1.8,4.7c0.2,0.7,0,1.4,0,2.3c0,0.8,0.6,1.4,0.6,2.3c0.2,1.9,0,3,0,4.9c0,3.8,0.2,6.5-1.8,9.6
	c-0.4,0.9-1.2,1.5-1.8,2.3c-0.5,0.9-1.9,0.9-2.3,1.7c-0.7,1.5-0.6,2.9-0.6,4.7c0,0.9-0.2,1.6,0,2.3c0.3,1,1.3,1.3,1.7,2.3l1.2,2.3
	c0.9,1.7,2.3,2.8,2.3,4.8c0,0.9-0.6,1.3-0.6,2.2c-1.8,0.1-3.2-0.1-4.6,0.6c-1,0.6-1.8,0.9-2.3,1.8c-0.4,0.6-0.3,1.6-0.6,2.3
	c-0.3,0.7-0.3,1.6-0.6,2.3c-0.5,1.1-2.1,1.1-2.3,2.3c-0.1,0.7,0.2,1.6,0,2.3c-0.3,1.2-0.6,2.2-0.6,3.5c0,1.5,0.3,2.5,1.2,3.5
	c0.6,0.7,1.6,0.7,2.3,1.2c0.9,0.6,1.3,1.7,2.5,1.7h7.4l1.8-20.9h8.7v6.9c-0.7,0.7-0.9,1.6-1.7,2.3c-0.7,0.6-1.6,0.6-2.3,1.2
	c-0.9,0.7-1,1.6-1.8,2.3v12.2c-0.6,0.7-1,1.5-1.8,2.3c-0.7,0.9-1.9,0.9-2.3,1.7c-0.5,0.7-0.5,1.6-0.6,2.3c-0.2,0.7-0.3,1.4-0.3,2.3
	c0,2.9,0.9,4.7,0.9,7.5c0,2.8,0.1,4.2,0,7c0,1-0.8,1.4-0.9,2.3l-2.6-1.7c-0.9-0.6-1-1.7-1.7-2.3c-0.6-0.4-1.9,0.1-2.3-0.6
	c-0.5-0.7,0-1.6,0-2.3v-2.3c0-1.7-0.3-2.9-0.6-4.6c-0.3,0.1,0.3,1.1,0,1.1c-1.2,0.3-2.2,0-3.5,0v6.9c0.7,0.4,1.8,0,2.3,0.6
	c0.7,0.7,0.6,1.6,1.2,2.3c0.6,0.7,1.9,0.9,2.3,1.7c0.5,0.7,0.9,1.5,1.2,2.3c0.2,0.7,0,1.6,0,2.3c0,0.7,0.6,1.5,0.6,2.3
	c0.2,1.8,0,2.9,0,4.6L1044.8,1816.4z"/>
<path class="st0" d="M1073.9,1069.1c2.3-0.6,2.3-3.7,4.6-4.6c1.5-0.3,3.2-0.9,4.7-1.2c1.4-0.3,2.9,0,4.6,0c1.8,0,2.9,1.2,4.7,1.2
	c1.8,0,2.9-1.2,4.6-1.2c3.5,0,5.8,0.3,9.3,0c3.5-0.3,5.8-0.9,9.3-1.2c1.7,0,2.9-1.1,4.7-1.1c1.8,0,2.9,1.1,4.7,1.1
	c3.5,0.3,5.8,1.2,9.3,1.2h4.7c2,0,2.9-1.7,4.6-2.3c-1.2-1.5-3.8-0.6-4.6-2.3c-1.2-2.3,0.6-4.3,0-6.7c-5.6,1.1-8.5,2-14,2h-4.7
	c-2.9-0.3-4.1-2.3-7-2.3h-2.3c-2,0.3-2.6,3.2-4.6,3.5c-1.5,0.3-2.9,0-4.7,0c-1.8,0-3.2,0.3-4.7,0c-2-0.6-2.6-2.6-4.6-3.5
	c-1.4-0.6-3.2-0.6-4.7-1.2c-2-0.9-2.6-2.9-4.6-3.5c-3.2-0.9-5.8,0-9.3,0c-3.8-0.3-5.8-1.2-9.6-1.2c-3.5,0-5.5,0.6-9.1,1.2v13.9
	c1.8,1.7,2.7,3.5,4.7,4.6c1.8,0.9,2.6,3.2,4.7,3.5h4.7C1071,1069.1,1072.4,1069.4,1073.9,1069.1z"/>
<path class="st0" d="M1019.1,1065.6c-0.9-1.4,0.3-3.7-1.2-4.6c-1.4-0.9-3.2-0.3-4.7-1.2c-1.7-0.9-2.9-2.3-4.9-2.3h-13.7
	c1.8,2.3,2,4.9,4.6,5.8c1.5,0.6,3.2-0.9,4.7,0c1.7,0.9,3.2,1.5,4.6,2.3c1.4,0.9,0.3,3.2,1.2,4.7c1.4-0.3,3.2,0.6,4.7,0
	C1016.8,1069.1,1017.4,1067.4,1019.1,1065.6z"/>
<path class="st0" d="M1040.1,1039.6c-2.3-3.8-4.7-6.1-8.2-8.7c-3.5-2.6-5.8-5.5-10.5-5.8h-4.7c-4.1-0.3-6.4,0.3-10.5,0
	c-1.8,0-3.2,0.3-4.7,0c-1.7-0.6-3.2-1.5-4.6-2.3c-1.8-0.9-1.8-3.5-3.5-4.6c-1.4-0.9-2.9-1.4-4.7-2.3c-3.5-2-5.8-2.6-9.3-4.6
	l-4.7-2.3c-1.7-0.9-1.4-3.8-3.5-4.6c-2.6-1.2-4.7,0-7.6,0c-2.9,0-4.7-0.3-7.6,0c-2,0.3-2.6,2.3-4.7,2.3c-1.8,0-2.9-1.2-4.7-1.2H937
	c-2,0-3.5-0.3-5.2,0c-1.4,0-3.2-0.6-4.7,0c-2.3,1.2-3.5,4.1-3.5,7c0,3.2,2.3,4.9,4.7,6.9c2.9,2.3,6.4,2.3,10.5,2.3
	c1.7,0,3.2,0.3,4.7,0c3.8-1.1,5.5-4.9,9.3-5.8c1.5-0.3,2.9,0,4.7,0c5.8,0,9.6,2.3,14,5.8c1.5,1.2,0.9,3.8,2.3,4.6
	c1.2,0.9,3.2,0.6,4.7,1.2c1.8,0.6,2.9,2,4.7,2.3c2,0.6,3.8-0.6,5.8,0c2.3,0.6,2.9,3.2,4.7,4.6c3.5,2.9,6.1,5.2,10.8,5.2H1040.1z"/>
<path class="st0" d="M1603,411.5c1.7-0.3,2.6-2.3,4.7-2.3c1.7,0,3.2-0.3,4.6,0c1.5,0.3,2.3,2.6,3.5,3.5c1.4,1.1,3.5,0.9,4.6,2.3
	c1.2,1.5-0.6,3.8,0,5.8c-1.7-0.3-2.9-1.2-4.6-1.2c-5.5-0.3-8.5-0.3-14,0c-1.8,0-2.9,0.9-4.6,1.2l1.1,6.9c1.7-0.3,2.9-1.1,4.7-1.1
	h9.3c0.6,0,0.9,1.1,1.2,1.1v9.3l2.3,4.6h4.6c1.7,0,2.9-1.1,4.7-1.1c3.5-0.3,5.8,0,9.3,0h4.6c1.5,0,3.2-0.6,4.7,0
	c2,0.9,1.7,3.5,3.5,4.6c1.4,0.9,2.9,1.7,4.7,2.3c2.3,0.9,4.3,0,7,0c2.6,0,4.7,0.3,7,0c2.1-0.3,3-2.3,4.7-3.5
	c2.1-1.4,1.4-4.3,3.5-5.8c1.8-1.2,2.6-2.6,4.7-3.5c1.4-0.6,3.2,0.6,4.7,0c2.3-0.9,2.6-3.8,4.6-4.6c3.2-1.7,5.9-2.9,9.3-3.5
	c6.4-0.9,10.8,0,17.5,0v-9.3c-1.2-1.4-0.6-3.7-2.3-4.6l-4.6-2.3c-1.4-0.6-2.9,0.3-4.6,0c0.3-1.7,0-3.2,0-4.6
	c0.3-1.8,2.3-2.3,2.3-4.4c0-2.3-1.1-3.8-1.1-6.1H1693c-2,0-3.2,0.6-5,1.2c-2,0.9-2.6,2.6-4.6,3.5c-2,0.9-3.5,2.6-5.8,2.6
	c-1.2,0-1.2,2-2.3,2c-1.8,0-2.9-1.1-4.7-1.1c-3.5-0.3-5.8-1.2-9.3-1.2c-3.5,0-6.1,0.6-9.3,1.2c-4.4,0.8-6.1,4.6-10.8,4.6h-9v-4.6
	v-4.6c-0.3-2-2.7-2.6-3.5-4.6l-4.6,1.2v4.6c-2.6-0.9-4.1-2.3-7-2.3c-2.6,0-4.7,0.9-7,1.2c-1.4,0-3.2-0.3-4.6,0
	c-1.8,0.6-3.5,1.1-4.7,2.3c-1.5,1.5-3.5,2.4-3.5,4.7c0,2.3,1.1,3.4,1.1,5.8C1600.1,411.2,1601.5,411.8,1603,411.5z"/>
<path class="st0" d="M1244.1,643.1c-1.5,0.9-3.8,0.9-4.7,2.3c-0.9,1.2,0.3,3.2,0,4.7c-0.6,2-0.9,3.7-1.2,5.8c-0.3,2-2.3,2.9-3.5,4.7
	c-1.1,1.7-2.3,2.8-3.5,4.6c-2.6,3.5-5,6.1-8.2,9.3c-5,4.9-9.3,8.4-9.3,15.4c0,2,1.2,3.5,1.2,5.5h33.5c4.7,0,6.4,3.8,9.6,6.9
	c3.2,3.2,5,4.9,9.3,7c1.2-1.7,4.4-1.4,4.6-3.5c0.6-3.2,0-5.8,0-9.2c0-1.7-1.2-2.9-1.2-4.6c0.3-4.1,2.6-5.8,4.7-9.3l-1.2-4.6
	c-1.7-0.3-3.2,0.6-4.6,0c-3.5-1.4-6.1-3.5-9.3-5.8c-2-1.4-2.3-3.7-4.7-4.6c-1.4-0.3-3.2-0.9-4.6-1.2c-1.4-0.3-3.2,0-4.7,0
	c-1.8-0.3-2.9-1.7-4.7-2.3c1.2-3.5,1.4-6.4,3.5-9.3c0.9-1.5,3.8-0.6,4.7-2.3c0.6-1.5,1.2-2.9,1.2-4.6c0-2.1-2-2.9-2.3-4.6
	C1247,643.4,1245.5,642.2,1244.1,643.1z"/>
<path class="st0" d="M1181.1,668.5c-1.7-0.6-2.9-2-4.7-2.3c-1.5-0.3-3.2,0.3-4.7,0c-1.8-0.3-2.9-1.4-4.7-2.3
	c-2.3-1.1-2.3-3.5-4.7-4.6c-1.5-0.6-3.2,0.3-4.7,0l-4.6,2.3c1.4,0.8,3.2,1.2,4.6,2.3c1.5,1.1,2,3.5,3.5,4.6c1.5,1.2,3.2,2.3,4.7,3.5
	c2.3,2,3.8,4.6,7,4.6c2.9,0,3.8-2.6,5.8-4.6C1179.7,671.2,1180.5,669.4,1181.1,668.5z"/>
<path class="st0" d="M1509.9,357.3c0.3-0.1,0.5,0,0.9,0c0.8,0,1.3,0,2,0.3c0.2,0.1,0.4,0.2,0.6,0.3c0.2,0.1,0.4,0.2,0.6,0.3
	c0.2,0,0.4,0,0.6,0.1c0.5,0.2,0.7,0.6,1.1,0.9c0.2,0.1,0.4,0.2,0.6,0.3c0.6,0.4,0.7,0.9,1.2,1.3c0.2,0.2,0.5,0.3,0.7,0.4
	c0.9,0.1,1.7,0.6,2.6,0.6c1.8,0,3.1-0.4,4.7,0c1.9,0.4,2.9,2,4.6,2.9c2,1,3.8,0.6,6.1,0.6c1.5,0,2.3,0.1,3.8,0c1,0,1.4-0.9,2.3-1.2
	c2.2-0.8,3.5-1.6,5.2-2.9c1.2-0.9,2.1-1.3,2.9-2.3c0.7-0.9,0.7-2.2,1.7-2.9c1.6-1.2,2.8-2,4.7-2.3c1.6-0.3,3.1,0.1,4.7,0
	c0.7,0,1.6-0.4,2.3-0.6c1-0.2,1.9-1,2.9-1.1c1-0.2,1.9,0.3,2.9,0c0.9-0.3,1.4-1,2.3-1.2c0.9-0.1,1.5-0.9,2.3-1.2
	c0.7-0.2,1.6,0.3,2.3,0c1-0.3,1.4-1.3,2.3-1.7c0.9-0.4,1.6-0.7,2.3-1.2c0.9-0.6,1.2-1.6,1.7-2.3c0.9-1,1.6-1.7,2.3-2.9
	c0.7-1.1,1.4-2.3,2.3-3.5c1.2-1.6,2.6-2.9,4.8-2.9h12c2,0,3.2-1.3,4.8-2.3c1-0.6,1.5-1.6,2.3-2.3c1-0.9,2.2-1.2,2.9-2.3
	c0.4-0.7-0.3-1.6,0-2.3l-2.3-1.2c-1.7,1.3-3.1,2-4.6,3.5c-0.6,0.4,0,1.9-0.6,2.3c-1,0.9-2.3,0.6-3.8,0.6h-1.5
	c-2-0.2-3.8-0.6-5.2-1.7c-1.4-1.1-1.2-3.6-2.9-4.6c-0.7-0.4-1.6,0-2.3,0h-2.3c-3.9,0-6.3,0-9.9-1.2c-0.7-0.1-1.6-0.4-2.3-0.6
	c-1-0.3-1.5-1-2.3-1.7c-0.9-0.7-1.9-0.8-2.3-1.7c-0.4-0.9-0.6-1.7-0.6-2.8V312c1.6-0.1,2.5-0.6,4.1-0.6c2.8-0.2,4.2,0.3,7,0
	c0.9,0,1.6-0.6,2.3-0.6c1.9-0.3,3.4-0.4,5.3-1.2c2-0.7,2.8-2.9,4.1-4.6c0.7,0.3,1.8,0.3,2.3,0.6c0.9,0.6,1.2,1.4,1.8,2.3
	c1.2,1.9-0.4,3.6,0,5.8c0.1,0.9,0.7,1.4,1.2,2.3c0.5,0.9,0.7,1.6,1.2,2.3c1.1,1.7,3.1,2.3,5.3,2.3c1.3,0,2.2-0.7,2.9-1.7
	c0.3-0.6,0.3-1.7,0.6-2.3c1.2-1.6,2.8-2.4,4.7-2.9c1.6-0.3,2.9,0,4.7,0c2,0,3.2,0.2,5.2,0c1,0,1.5-1,2.3-1.2c-0.3-1.7-0.4-3-0.6-4.6
	c-0.3-2-1.3-3.3-2.3-5.2c-0.4-1-0.7-2.2-1.8-2.9c-1.6-1.2-3-1.3-4.7-2.3c-1.7-1.2-3.3-2.2-4.1-4c-0.6-1.6,0.6-3.1,0-4.6
	c-0.3-0.9-1.9-0.3-2.3-1.2c-0.3-0.7-0.3-1.6-0.6-2.3c-0.3-0.7,0.3-1.7,0-2.3c-0.4-0.7-1.6-0.7-2.3-1.2c-1.5-0.9-2.9-1-4.7-1.8
	c-1-0.4-1.5-1.3-2.3-1.7c0.9-0.7,0.9-1.7,1.7-2.3c0.6-0.3,1.6-0.3,2.3-0.6c1.8,1,2.5,2.9,4.1,4c0.7,0.4,0.3,1.9,1.1,2.3
	c0.9,0.4,1.8,0,2.8,0h2.5c0.9,0,1.5-0.6,2.3-0.6c0.9,0,1.4,0.3,2.3,0.3c0.4-3.5,0.4-5.5,0.6-9v-2.3c0-0.7,0.5-1.6,0.6-2.3
	c0.2-0.9,1.2-1.3,1.2-2.3c0-0.9-0.1-1.6-0.6-2.3c-0.4-0.7-1.4-0.7-2.3-1.2c-1.6-0.9-3.1-1.2-5-1.2c-1.9,0-3.4-0.1-5,0.6
	c-0.9,0.4-0.4,1.7-1.2,2.3c-0.7,0.6-1.4,0.6-2.5,0.6h-8c0.9-1.3,1-2.8,2.3-3.5c0.7-0.4,1.8-0.1,2.3-0.6c0.7-0.4,1.6-0.7,2.3-1.1
	c0.6-0.4-0.3-1.6,0-2.3c-1.7-0.7-2.9-1.2-4.7-1.8c-0.9-0.3-1.4-0.9-2.3-1.2l1.7-1.7h9.9v6.4h9.2c1,0,1.7,0,2.5-0.6
	c0.7-0.6,0.3-1.9,1.2-2.3c1.6-0.7,3.1-0.6,5-0.6h2.6c2.6,0.2,3.8,2.3,6.4,2.3c1.5,0,2.3-0.6,3.5-1.2c0.9-0.4,1-1.6,1.7-2.3
	c0.9-0.9,2.3-1,2.3-2.3c0-1.4-1-2.3-1.7-3.5c-0.7-1.2-1.3-2-2.3-2.9c-1.2-1-1.9-2.3-3.5-2.3c-1.3,0-2.3,0.3-3.5,0.6
	c-0.9,0.1-1.5,1-2.3,1.1c-0.7,0.1-1.4,0.6-2.3,0.6c-0.9,0-1.6-0.3-2.3-0.6c-1-0.4-1.9-0.9-2.3-1.7c-0.4-0.8-1.2-1.3-1.2-2.3
	c0-1.5,1.5-2.3,2.9-2.3c0.9,0,1.5,0.6,2.3,0.6c0.9,0,1.5,0.6,2.3,0.6c1.9,0.1,3,0,4.9,0c1.9,0,3.2,0.3,5,0c0.9-0.1,1.5-0.7,2.3-1.2
	l2.3-1.1c1-0.4,0.6-2.3,1.7-2.3c1,0,1.3,1.1,2.3,1.1h3.8c1.5,0,2.5,0.3,3.8,0c0.7-0.1,1.6-0.3,2.3-0.6c0.7-0.3,0.1-1.6,0.6-2.3
	c-1.6-1.6-2.5-2.9-4.7-3.5c-0.7-0.1-1.6,0.1-2.3,0c-1.2-0.3-1.9-1-2.9-1.7c-1.2-0.9-2.5-1.4-3-2.9c-0.1-0.7-0.6-1.4-0.6-2.3
	c0-1.3,0.3-2,0.3-3.3c0-1.4-0.3-2.2-0.3-3.6c0-0.9,0.6-1.4,0.6-2.3c0-0.6-0.3-0.9-0.3-1.5c3.8,0.1,5.8,0.3,9.6,0v-6.8
	c0-3-3.4-3.5-4.7-6.2c-0.3-0.7,0.2-1.6,0-2.3c-0.1-1.2-0.4-2.2-0.6-3.5c-2.8,0-4.2,0.5-7,0c-1.2-0.1-1.9-0.4-2.9-0.6
	c-0.7-0.2-1.6-0.4-2.3-0.6c-0.9-0.3-1.5-0.7-2.3-1.1c-0.9-0.4-1.6-0.7-2.3-1.2c-0.9-0.6-1.2-1.4-1.8-2.3c-0.6-1-0.6-2.2-0.6-3.5
	c0-0.4-0.1-0.9,0-1.2c0.4-0.9,1.6-0.7,2.3-1.2c0.9-0.6,0.7-1.9,1.7-2.3c0.7-0.3,1.6,0.1,2.3,0c1.9-0.4,3.2-0.4,5.3-0.6
	c0.9,0,1.4-0.6,2.3-0.6h4.7c1.7,0,3-0.3,4.7,0c1,0.2,1.5,1.2,2.3,1.8c1.2,0.7,2.3,1.4,2.3,2.9v1.2c0.1,1-0.9,1.4-1.1,2.3
	c-0.5,1.3-1.8,2-1.8,3.5c0,3.6,1.3,5.5,2.9,8.7l2.9-1.2v-18.5c0.6-0.9,1-1.4,1.7-2.3c0.7-0.9,2.3-1,2.3-2.3V173c0-1.3-1-1.9-1.7-2.9
	c-0.9-1.2-1.3-2.9-2.9-2.9c-1.3,0-2.3,0.3-3.5,0.6c-0.9,0.2-1.5,1-2.3,1.2c-1.5,0.3-2.3,0-3.9,0h-3.6c-1.2,0-1.8-0.6-2.9-0.6
	c-0.7,0-1,0.3-1.7,0.3v-7.2c0.9,0,1.6-0.6,2.3-0.6c0.9,0.2,1.3,1.2,2.3,1.2h2.2c1.9,0,3.1-0.2,4.8-0.6c1-0.3,1.4-1.3,2.3-1.7
	c-0.6-0.9-1-1.4-1.7-2.3c-0.7-0.9-1-2.2-2.3-2.3c-1.8-0.1-3.1,0.9-4.7,0.6c-1-0.2-1.3-1.5-2.3-1.7c-0.7-0.2-1.6-0.4-2.3-0.6
	c-0.7-0.1-1.4,0-2.3,0c-1.5-0.1-2.2-1.2-3.6-1.2c-2.2,0-3.5,0.4-5.7,0.6c0,1.6,0.3,2.4,0,4c-0.2,1-0.7,1.5-1.2,2.3
	c-0.7-0.1-1.8,0.4-2.4,0c-0.9-0.7-1.7-0.9-2.3-1.7c-0.4-0.7,0-1.5,0-2.3c0-1.7,0-3.2,0.6-4.6c0.3-0.9,0.6-1.6,1.2-2.3
	c0.5-0.6,1.9,0,2.3-0.6c0.7-0.9,1.3-1.3,1.8-2.3c0.3-0.7,0-1.4,0-2.3c0.1-1.7,0-2.9,0-4.6c0.1-2.3,0.9-4.1,1.2-6.4h7
	c0-2.3-0.3-4.2,1.1-5.8c0.6-0.7,0.9-1.8,1.8-2.3c1.3-0.9,3.1-0.4,4.7-0.6h2.3c1-0.2,1.3-1.3,2.3-1.7c-0.1-0.9-0.4-1.5-0.6-2.3
	c-0.2-1.3-0.6-2.2-0.6-3.5c0-1.5,1-2.3,1.8-3.5c0.4-0.9,1.2-1.4,1.8-2.3c0.4-0.8,0.7-1.6,1.2-2.3c0.6-0.9,1.5-1.2,2.3-1.7
	c1.6-1.2,2.8-2,4.6-2.3c2.6-0.4,4.4,1.2,7,0.6c0.7-0.1,1.7-0.1,2.3-0.6c0.7-0.6,0.7-1.4,1.2-2.3c0.3-0.7,0.3-1.6,0.6-2.3
	c0.4-0.9,0.6-1.6,1.2-2.3c0.6-0.7,1.5-0.7,2.3-1.2c0.9-0.4,1.4-1,2.3-1.1c0.7-0.1,1.6,0,2.3,0c0.7,0,1.6-0.5,2.3-0.6
	c0.7-0.1,1.6,0.1,2.3,0c1-0.3,0.9-1.7,1.7-2.3l-0.6-2.7h-21.5l-5.8-1.3c2.1-0.4,3.3-0.4,5.2-1.2c2.6-1,3.5-4,6.4-4
	c1.5,0,2.2,0.6,3.5,1.2c1.2,0.4,1.6,1.6,2.9,1.7c1,0.1,1.6,0,2.7,0h2.6c0.9,0,1.4-0.6,2.3-0.6c0.9,0,1.6,0.1,2.3,0
	c1-0.2,1.9-0.3,2.9-0.6c1-0.3,1-1.8,1.8-2.3c0.7-0.6,1-1.4,1.8-2.3c1-1.2,1.7-1.9,2.9-2.9c0.7-0.6,0.7-2,1.8-2.3
	c1.6-0.6,2.9-0.6,4.7-0.6h2.3c3.7,0,5.8-0.1,9.3-0.6c0.7,0,1.6-0.4,2.3-0.6c0.7-0.1,1.6-0.3,2.3-0.6c1.2-0.4,1.7-1.3,2.3-2.3
	c0.6-0.9,1.4-1.3,1.8-2.3c0.4-1.6,0.6-2.9,0.6-4.6c0-1.7,0-3.5-1.2-4.6c-0.6-0.6-1.4-0.8-2.3-1.1c-1.7-0.7-3.2-0.6-5.2-0.6
	c-2.1,0-3.4,0.1-5.3,0.6c-1.2,0.3-1.7,1.5-2.9,1.7c-1.6,0.4-2.9,0.6-4.7,0.6c-2,0-3.3-0.4-5.2-1.2c-1-0.3-1.9-0.8-2.9-1.1l-3.5-1.2
	c-1-0.3-1.8-1.1-2.9-1.1c-2,0-3.4,1-5.2,1.1c-1,0.2-1.9-0.1-2.9,0c-1.9,0.2-3.4,0.6-5.3,1.2c-1,0.3-1.5,1.1-2.3,1.7
	c-0.9,0.6-1.9,0.9-2.3,1.7c-0.9,1.6-0.9,3-1.7,4.6c-0.4,0.9-0.4,1.9-1.2,2.3c-0.6,0.4-1.6,0.4-2.3,0.6c-1.9,0.4-3.2-0.2-5.2,0
	c-1.9,0.1-3.1,0.6-4.9,0.6s-3.4,0.1-5-0.6c-1-0.5-0.9-1.7-1.7-2.3c-1.9-1.3-3.8-0.6-6.1-0.6c-1.5,0-2.5-0.6-3.8,0
	c-1.9,0.9-2.8,2.4-4.1,4c-0.6,0.8-0.4,1.7-1.2,2.3c-0.7,0.6-1.4,0.9-2.3,1.2c-0.7,0.1-1.4,0-2.3,0c-2,0.1-3.2-0.1-5.3,0
	c-1.8,0.1-3,0.6-4.6,1.1c-1,0.3-1.3,1.5-2.3,1.7c-1.9,0.7-3.3,0.6-5.2,1.2c-1,0.3-1.5,1.2-2.3,1.7c-1.2,0.9-2,1.3-2.9,2.3
	c-1.6,1.9-1.2,4.6-3.5,5.8c-0.9,0.5-1.3,1.2-2.3,1.2c-1,0-1.3-1-2.3-1.2c0.6-0.7,0.4-1.6,1.2-2.3c0.7-0.7,1.7-0.4,2.3-1.2
	c0.6-0.7,0.7-1.6,1.2-2.3c0.6-0.9,1.3-1.4,1.7-2.3c0.9-1.6,1.3-3.6,2.9-4.6c0.6-0.3,1.6,0.3,2.3,0c1.5-0.6,2.3-1.1,3.8-1.7
	c0-0.9-0.3-1.5-0.3-2.3v-5.2c0.9-0.4,1.9-1.9,2.9-2.3c0.7-0.3,1.7-0.1,2.3-0.6c0.9-0.6,1.9-0.8,2.3-1.7c0.5-0.7,0-1.4,0-2.3
	c0-0.9,0.2-1.6,0-2.3c-0.1-0.9-0.7-1.6-1.2-2.3c-0.6-0.9-0.9-1.9-1.8-2.3c-0.7-0.4-1.4,0-2.3,0h-2.3c-0.9,0-1.5,0.6-2.3,0.6
	c-2.3,0.2-3.5-0.2-5.8,0c-0.9,0-1.4,0.6-2.3,0.6c-2.9,0.1-4.7,0.1-7.6,0c-1.2,0-1.9-0.9-2.9-1c0,2.9,0.2,4.5,0,7.4
	c0,0.9-0.6,1.5-0.6,2.3c0,0.7,0.6,1.1,0.6,1.9c-1.2,0-1.7,1-2.9,1c-1.2,0-1.7-1-2.9-1.1c-1.6-0.1-2.5,0-4.1,0c-1.6,0-2.6-0.3-4.1,0
	c-1.9,0.4-2.9,1.6-4.7,2.3c-0.7,0.3-1.6,0.3-2.3,0.6c-1,0.3-1.3,1.3-2.3,1.7c-0.7,0.3-1.6-0.1-2.3,0c0.1-0.7,0.5-1.6,0.6-2.3
	c0.3-0.9,0.9-1.4,1.2-2.3c0.3-1,0.3-2.3,1.2-2.9c0.9-0.6,1.3-1.6,2.3-1.7h2.3c2-0.2,3.2,0,5.3,0c1.8,0,3.1-0.2,4.7-0.6
	c1-0.3,1.5-1.3,2.3-1.7l-0.6-2.3c-0.9-0.1-1.3-1-2.3-1.2c-1.2-0.1-1.8,0.1-2.9,0c-1.4-0.1-2.3-0.6-3.8-0.6c-3.6,0-5.4,1.3-9,1.7
	c-1.7,0.1-2.9,0-4.7,0c-1,0-1.4,0.6-2.5,0.6h-16c-2.5,0-3.8-1.1-6.2-1.1c-2.3,0-3.9,0.6-6.1,1.1c-1,0.1-1.9,0.3-2.9,0.6
	c-0.9,0.2-1.5,0.9-2.3,1.2c-0.7,0.1-1.6,0.4-2.3,0.5c-1.3,0.5-2.1,1.5-3.5,1.8c-1,0.1-1.7-0.2-2.9,0c-1.4,0.1-2,1-3.5,1.1
	c-1.2,0.1-1.8-0.2-2.9,0c-1.1,0.1-1.9,0.9-2.9,1.2c-0.7,0.1-1.6,0.4-2.3,0.6c-1,0.3-1.7,1.1-2.9,1.1c-1,0-1.3-1-2.3-1.1
	c0.3-0.7,0.3-1.6,0.6-2.3c1-2,2.2-2.9,3.5-4.6c0.6-0.9,0.9-1.6,1.7-2.3c1.6-1.3,3.1-1.9,5.3-2.3c1.1-0.1,1.9-0.6,3.1-0.6h39.3
	c1,0,1.7-0.2,2.5-0.6c0.9-0.6,0.9-1.7,1.7-2.3c0.7-0.4,1.5-0.6,2.5-0.6h32.9c1,0,1.5-0.6,2.5-0.6c1.7,0,3,0.6,4.6,0
	c0.9-0.3,1.5-0.8,2.3-1.2c0.9-0.5,0.3-1.9,1.2-2.3c0.7-0.4,1.6,0.1,2.3,0c0.9-0.3,1.4-1,2.3-1.2c0.7,0,1.6,0.2,2.3,0
	c0.7-0.1,1.6,0.2,2.3,0c1-0.1,1.3-1.6,2.3-1.7c2.8-0.6,4.7,0.1,7.6,0c1.1,0,1.7-0.4,2.9-0.6v-5.2l-7-0.6c-1.3,0.4-2,1.2-3.5,1.2
	h-1.1c-1,0-1.5-1-2.3-1.2c-2.8-0.7-4.6-1.2-7.6-1.2c-1.8,0-2.9,0.6-4.7,0.6c-2.3,0-3.6,0-5.8-0.6c-0.9-0.1-1.4-0.7-2.3-1.1
	c0.4-0.9,2.3-0.6,2.3-1.7c0-1-1.2-1.3-1.2-2.3c-0.9,0-1.4,0.1-2.3,0c-1.8-0.3-2.6-1.1-4.4-1.1c-0.6,0-1-0.2-1.5,0
	c-1,0.4-1.3,1.7-2.5,1.7h-11.4c-2.2,0-2.9-2.2-4.8-2.9c-0.7-0.3-1.6-0.4-2.3-0.6c-1.9-0.3-3.2,0-5.2,0h-14h-3.5h-8.8h-4.6
	c-1.8,0-3.1,0.2-4.7,0.6c-1,0.3-1.4,1.4-2.3,2h-20.4l0.6-2.6h4.5c1.9,0,3.1,0.9,4.8,0.6c1-0.1,1.2-1.6,1.7-2.3
	c0.6-0.7,0.9-1.7,1.2-2.6h69.9c-0.1-0.9,0.3-1.7,0-2.6c-0.4-1.2-1.3-1.6-2.3-2.3c-0.7-0.4-1.4-0.9-2.3-1.2c-1.7-0.7-3.2-1-5.3-1.2
	h-2.9c-2.1-0.1-3.2-0.4-5.3-0.6c-1.7,0-3.1-0.1-4.7-0.6c-0.9-0.1-1.5-1-2.3-1.2c-0.7-0.1-1.6-0.6-2.3-0.6c-1.9-0.3-3.2,0-5.2,0
	c-2.1,0-3.2-0.1-5.2,0c-0.9,0-1.5,0.6-2.3,0.6c-2,0.2-3.2,0-5.3,0h-2.9c-1.9-0.1-3-1.1-4.8-1.1c-19.4,0-30.4-0.3-49.8-0.3
	c-1.9,0-3.1,0.5-4.8,0.9c-0.7,0.1-1.6-0.1-2.3,0c-1.1,0.1-1.9,1-2.9,1.7c-1,0.7-1.2,2.2-2.3,2.3c-0.9,0.1-1.6,0-2.6,0h-2.6
	c-1.2,0-1.8-0.6-2.9-0.6h-2.9c-0.9,0-1.5-0.6-2.3-0.6c-1.5-0.1-2.3,0-3.8,0c-1.5,0-2.5-0.1-3.8,0c-3.2,0.4-5,2-7.6,4.1
	c0.9,1.1,1.2,2.9,1.7,4c0.4,0.9,1.2,1.7,1.2,2.9c0,1.9-2.3,2.3-4.1,2.9c-1.6,0.4-2.9,0.6-4.7,0.6c-2,0-3.5-0.4-5.2-1.1
	c-0.9-0.3-1.5-1.2-2.5-1.2h-12c-3.5,0-4.6-3-7.7-4.6c-0.7-0.3-1.4-0.4-2.3-0.6c-2.5-0.4-3.9-0.6-6.4-0.6c-1.2,0-1.9-0.2-2.9,0
	c-0.7,0.2-1.6,0.4-2.3,0.6c-1,0.3-0.9,1.7-1.8,2.3c-0.9,0.6-1.8,1.2-2.9,1.2c-1.9,0.1-3,0-4.9,0h-2.1c-1.1,0-1.8,0.1-2.9,0
	c-1.4-0.1-2.1-1.7-3.5-1.7c-2.6,0-3.9,0.9-6.4,1.7c-2.9-0.2-6-0.6-8.9-0.6c-0.7,0-1-0.1-1.6,0c-0.4,0.1-0.7,0.5-1.2,0.6
	c-0.4,0.1-0.8-0.1-1.2,0c-0.6,0.1-1.1,0.4-1.7,0.6c-0.8,0.2-1.5,0.4-2.3,0.6c-1.3,0.4-1.9,0.9-3.2,1.5c0.5,1.1,0.7,1.7,1.4,2.6
	c0.5,0.5,0.8,0.9,1.5,1.2c0.4,0.2,0.6,0.5,1.1,0.6c0.6,0.1,1-0.1,1.5,0c1.2,0.2,1.9,0.8,2.9,1.5c0.6,0.3,0.9,0.7,1.4,1.1
	c0.4,0.4,0.9,0.6,1.2,1.1c0.3,0.4,0.7,0.7,0.9,1.2c0.3,0.8,0.4,1.4,0.6,2.3c0.2,1.2,0,2,0,3.2l-1.1-0.9c-0.3-0.4-0.5-0.9-0.9-1.1
	c-0.4-0.3-0.4-1-0.9-1.2c-0.4-0.1-0.8,0.1-1.2,0c-0.5-0.1-0.9-0.2-1.5-0.3c-0.6-0.1-1-0.1-1.5-0.3c-0.6-0.2-0.9-0.7-1.5-0.9
	c-0.3-0.1-0.8,0.1-1.1,0c-0.5-0.2-0.7-0.7-1.2-0.9c-0.5-0.2-0.9-0.2-1.5-0.3c-0.4,0-0.7-0.3-1.2-0.3c-0.6-0.1-1.1,0-1.7,0
	c-1,0-1.5-0.3-2.5-0.3c-0.9,0-1.4-0.1-2.2,0.3c-0.5,0.2-0.9,0.4-1.2,0.9c-0.1,0.4-0.6,0.6-0.6,1.2c0,0.4,0.2,0.8,0.3,1.2
	c0.2,0.9,0.7,1.5,1.2,2.3c0.3,0.5,0.7,0.8,1.2,1.2c0.5,0.4,0.9,0.9,1.4,1.2c1,0.6,1.8,0.6,2.9,1.1c0.9,0.4,1.5,0.8,2.3,1.2
	c0.4,0.1,0.8,0.2,1.1,0.3c0.5,0.2,0.7,0.5,1.2,0.6c0.5,0.1,0.9,0.2,1.4,0.3c1,0.1,1.6,0,2.6,0h2.6c0.6,0,1,0.2,1.5,0.3
	c0.5,0.1,0.7,0.6,1.2,0.9c0.4,0.3,0.7,0.6,1.2,0.9c1,0.6,1.7,0.9,2.6,1.7c0.4,0.3,0.5,0.7,0.9,1.1c0.7,0.9,1.4,1.4,2,2.3
	c0.3,0.5,0.7,0.9,0.9,1.5c0.2,0.4,0.5,0.6,0.6,1.1c0.1,0.4-0.1,0.7,0,1.1c0.1,0.6,0.3,1.1,0.3,1.7c0,0.9,0,2-0.9,2
	c-0.4,0-0.7-0.3-1.2-0.3c-1,0-1.7-0.3-2.6-0.6c-0.5-0.1-0.9-0.5-1.5-0.6c-0.6-0.1-0.9,0.1-1.5,0c-0.7-0.1-1.1-0.4-1.7-0.6
	c-1-0.4-1.4-0.8-2.3-1.1c-0.4-0.2-0.7-0.4-1.2-0.6c-0.5-0.1-0.9-0.1-1.5-0.3c-0.5-0.1-0.9-0.4-1.4-0.6c-0.7-0.3-1.1-0.6-1.8-0.9
	c-0.4-0.1-0.8-0.2-1.2-0.3c-1.5-0.6-2.4-1.3-4.1-1.5c-0.8-0.1-1.3-0.2-2-0.3c-1.3-0.3-2-1-3.2-1.4c-0.4-0.2-0.8-0.2-1.2-0.3
	c-0.6-0.3-0.9-0.8-1.5-1.2c-0.3-0.2-0.8-0.4-1.1-0.6c-0.6-0.4-0.9-0.8-1.5-1.2c-0.6-0.4-1.2-0.5-1.7-0.9c-0.5-0.3-0.7-0.7-1.2-1.1
	c-0.5-0.5-0.7-1.3-1.4-1.5c-0.5-0.1-0.9,0.2-1.5,0c-0.4-0.1-0.7-0.5-1.2-0.6c-0.4-0.1-0.8-0.2-1.2-0.3c-0.6-0.1-0.9-0.6-1.5-0.6
	h-5.4c-0.6,0-0.9,0.4-1.5,0.3c-1-0.1-1.7-0.6-2.6-0.9c-0.7-0.2-1.3-0.3-2.1-0.6c-1.3-0.5-2.1-1.5-3.5-1.5c-4.7,0-7.2,0.2-11.9,0.2
	c0,0.6-0.2,1,0,1.6c0.2,0.5,0.6,0.7,0.9,1.1c0.8,1.1,1.4,1.6,2.3,2.6c0.9,0.9,1.4,1.5,2.6,1.7c0.5,0.1,1-0.2,1.4,0l1.2,0.6
	c0.5,0.2,0.5,0.8,0.9,1.2c0.8,0.8,1.4,1.4,2.3,2c0.4,0.3,0.8,0.4,1.2,0.9c0.4,0.4,0.5,1,0.9,1.5c0.4,0.5,1.1,0.6,1.4,1.2
	c0.5,0.8,0.8,1.4,1.2,2.3c0.2,0.4,0.2,0.8,0.3,1.2c0.2,0.6,0.7,0.9,0.9,1.4c0.4,0.9,0.9,1.4,0.9,2.4v1.7h-2.8c-0.6,0-1-0.2-1.5-0.3
	c-0.6-0.1-1-0.1-1.4-0.3c-0.5-0.2-0.7-0.8-1.2-1.1c-0.6-0.4-1.2-0.4-1.8-0.9c-0.3-0.3-0.2-0.8-0.6-1.2c-0.4-0.4-0.8-0.4-1.2-0.6
	c-0.6-0.4-1.2-0.8-1.7-1.2c-0.6-0.4-0.9-0.8-1.5-1.2c-0.5-0.4-1.1-0.7-1.7-1.2c-1.1-0.7-1.5-1.4-2.6-2c-0.3-0.2-0.7-0.4-1.2-0.6
	c-0.4-0.2-0.7-0.6-1.1-0.9c-0.4-0.3-0.7-0.5-1.2-0.9c-0.9-0.7-1.2-1.5-2.3-1.7c-0.4-0.1-0.8-0.3-1.2-0.3c-0.4-0.1-0.7,0-1.2,0
	c-1.2-0.1-1.9-0.4-2.9-0.9c-0.5-0.2-0.9-0.4-1.2-0.9c-0.3-0.4-0.3-1-0.6-1.4c-0.3-0.5-0.7-0.9-1.2-1.2c-0.4-0.2-0.8-0.1-1.2-0.3
	c-0.7-0.3-1.1-0.7-1.8-0.9c-0.4-0.1-0.7,0-1.2,0c-1-0.1-1.4-0.3-2.4-0.3h-4.3v1.9c0,1,0.5,1.6,0.9,2.4c0.6,1.3,1.4,2.2,2.1,3.5
	c0.3,0.6,0.6,1,0.6,1.7c0,0.7-0.2,1.1-0.3,1.7c-0.1,0.6,0,0.9,0,1.4c0,0.4-0.3,0.8-0.3,1.2V57c-0.1,0.4-0.4,0.7-0.6,1.2
	c-0.6,1.9-1.1,3.1-1.8,4.9c-0.2,0.5-0.2,1-0.6,1.5c-0.3,0.3-0.1,0.9-0.6,1.2c-0.5,0.3-1.1,0.3-1.8,0.3c-0.8,0-1.3-0.3-2-0.6
	c-0.7-0.3-1.2-0.4-1.8-0.9c-0.9-0.7-1.7-1.1-2-2c-0.1-0.4,0-0.7,0-1.2c0-1,0.1-1.6,0.3-2.6c0.1-0.5,0.6-0.7,0.9-1.1
	c0.7-1,1.2-1.7,2-2.6c0.4-0.4,1-0.6,1.2-1.2c0.2-0.4,0.6-0.6,0.6-1.1c0-0.4-0.2-0.8-0.3-1.2c-0.1-0.6-0.9-0.6-1.1-1.2
	c-0.4-0.6-0.5-1.1-0.9-1.7c-0.3-0.5-1.1-0.6-1.2-1.2v-1.2c0-0.4,0.3-0.8,0.3-1.2c-0.2-0.9-0.7-1.7-1.5-2.3c-0.5-0.4-0.9-0.6-1.4-0.9
	c-0.6-0.4-0.9-0.8-1.5-1.2c-0.5-0.3-1-0.5-1.5-0.8c-0.4-0.4-0.4-1-0.9-1.2c-0.7-0.3-1.3,0-2.1,0c-0.8,0-1.3-0.2-2,0
	c-0.5,0.1-0.7,0.5-1.2,0.6c-0.8,0.2-1.5,0.4-2.3,0.6c-0.4,0.1-0.7,0.4-1.2,0.6c-1.1,0.4-1.9,0.8-2.9,1.4c-0.6,0.4-0.9,0.9-1.5,1.2
	c-0.4,0.2-0.7,0.4-1.2,0.6c-0.4,0.2-0.7,0.5-1.2,0.6c-0.3,0.1-0.8-0.1-1.2,0c-0.5,0.1-0.9,0.4-1.4,0.6c-0.5,0.1-1,0.3-1.4,0.6
	c-0.6,0.3-0.9,0.7-1.5,0.9c-1,0.2-1.6,0.3-2.6,0.3c-0.5,0-0.7-0.3-1.2-0.3h-6.8c-0.6,0-1,0.1-1.5,0.3c-0.5,0.1-0.9,0.4-1.4,0.6
	c-0.4,0.1-0.7,0.5-1.1,0.6c-0.9,0.2-1.5,0.6-2.4,0.6h-0.8c-0.8-0.1-1.2-0.3-2.1-0.3c-2.5,0-4.1,0.2-6.6,0.2c-0.6,0-1,0.2-1.5,0.3
	c-0.3,0.1-0.8,0.1-1.2,0.3c-0.6,0.2-0.9,0.6-1.1,1.2c-0.2,0.4,0.1,0.8,0,1.1c0.3,0.4,0.2,1,0.6,1.2c0.4,0.1,0.8,0.2,1.2,0.3
	c0.4,0.1,0.7,0.3,1.2,0.3c1,0.1,1.6-0.1,2.6,0c0.7,0.1,1.1,0.3,1.8,0.6c0.6,0.2,1,0.5,1.4,0.9c0.5,0.4,0.9,0.6,1.2,1.1
	c0.2,0.4,0.4,0.7,0.6,1.2c0.2,0.4,0.7,0.7,0.9,1.1c0.3,0.5,0.3,1.2,0.9,1.5c0.5,0.2,1,0.1,1.5,0.3c0.9,0.4,1.4,0.9,2.3,1.2
	c0.4,0.1,0.7,0,1.1,0c0.9,0.1,1.5-0.1,2.3,0c0.5,0,0.7,0.4,1.1,0.6c0.6,0.3,0.7,0.9,1.2,1.2c0.8,0.4,1.5,0.8,2.3,1.2
	c0.4,0.1,0.7,0.4,1.2,0.6c0.3,0.2,0.8,0.1,1.1,0.3c0.9,0.5,1.3,1.2,2.1,2l-0.9,1.2h-4.9c-0.5,0-0.8-0.5-1.2-0.6
	c-0.4-0.1-0.8-0.2-1.2-0.3c-0.5-0.2-0.7-0.4-1.2-0.6c-1.1-0.4-1.9-0.4-2.9-0.9c-0.6-0.3-0.9-0.8-1.5-1.2c-0.5-0.3-0.9-0.6-1.4-0.9
	c-0.4-0.3-0.7-0.5-1.2-0.9c-0.4-0.4-0.6-1.1-1.2-1.2c-1.4-0.3-2.3,0.1-3.8,0c-0.6,0-0.9-0.3-1.5-0.3h-1.2c-0.6,0-1-0.1-1.5-0.3
	c-0.7-0.2-0.7-1.2-1.5-1.4c-0.9-0.4-1.7-0.4-2.6-0.6c-0.5-0.1-0.7-0.4-1.2-0.6c-1.2-0.4-2.1-0.7-3.2-1.5c-0.5-0.4-0.7-0.7-1.1-1.2
	c-0.5-0.4-0.8-0.6-1.2-1.1c-0.3-0.4-0.2-0.9-0.6-1.1c-0.4-0.3-0.6-0.7-1.2-0.9c-0.4-0.1-0.7,0-1.2,0c-2,0-3.1,0.3-5,0.9
	c-0.4,0.1-0.7,0.4-1.2,0.6c-0.5,0.2-1,0.4-1.4,0.6c-0.5,0.2-0.7,0.6-1.2,0.9c-0.5,0.2-1,0.1-1.5,0.3c-0.5,0.2-0.6,0.7-1.2,0.9
	c-1,0.5-1.7,0.8-2.9,1.2c-0.4,0.1-0.8,0.1-1.2,0.3c-0.7,0.4-1.2,1-1.2,1.8c0,1.2,0.5,1.9,1.2,2.9c0.3,0.5,0.9,0.7,1.2,1.2
	c0.2,0.4,0.4,0.7,0.6,1.2c0.1,0.4,0.4,0.7,0.4,1.2v9.5h-7.3c-1,0-1.5-0.5-2.4-0.9c-0.6-0.2-0.9-0.5-1.5-0.9
	c-0.5-0.4-0.7-0.9-1.2-1.2c-0.4-0.2-0.7-0.3-1.2-0.3c-5.1,0-8-0.2-13-0.3c-0.4,0.3-0.9,0.4-1.2,0.9c-0.5,0.8-0.7,1.5-1.1,2.3
	c-0.3,0.5-0.6,0.9-1.2,1.2c-0.8,0.3-1.5,0.3-2.3,0.6c-1.3,0.4-2.1,1.1-3.5,1.4c-0.8,0.2-1.5,0.2-2.3,0.3c-1.1,0.2-1.5,1.2-2.3,2
	l-1.2,1.2c-0.9,0.9-1.5,1.6-2.6,2.3c-0.4,0.2-0.7,0.7-1.2,0.9c-0.3,0.1-0.8,0.2-1.2,0.3c-0.8,0.2-1.4,0-2.3,0c-0.8,0-1.2-0.1-2.1,0
	c-0.6,0-0.9,0.3-1.4,0.3c-0.6,0-0.9-0.1-1.5,0c-0.6,0.1-0.9,0.6-1.4,0.9c-0.5,0.3-0.9,0.6-1.4,0.9c-0.5,0.2-0.7,0.6-1.2,0.9
	c-0.4,0.2-0.8,0.2-1.2,0.3c-0.2,0.3,0,1.2-0.3,1.5c-0.5,0.3-0.7,0.6-1.2,0.9c-0.4,0.2-0.8-0.1-1.2,0c-0.4,0.2-0.8,0.2-1.2,0.3
	c-0.4,0.1-0.3,0.8-0.6,1.1c-0.9,1.1-1.5,1.7-2.3,2.9c-0.2,0.3,0,0.9-0.3,1.2c-0.3,0.2-0.9,0.1-1.2,0.3c-0.5,0.4-1.2,0.5-1.2,1.1
	c0,0.9,0.2,1.5,0.3,2.3h2.3c1,0.2,1.3,0.4,2.3,0.6c1.2,0.2,2-0.1,2.9,0.6c0.4,0.3,0.7,0.6,1.2,0.9c0.4,0.3,0.3,1,0.9,1.2
	c0.4,0.1,0.8,0,1.2,0c1.1,0.1,1.9,0,3.1,0c1.7,0,2.6,0.2,4.2,0c0.9-0.1,1.5-0.5,2.3-0.9c0.4-0.1,0.8-0.1,1.1-0.3
	c0.6-0.3,0.7-0.9,1.2-1.1c0.6-0.4,1-0.9,1.8-0.9c1.2,0,1.5,1.2,1.8,2.3c0.1,0.8,0,1.5,0,2.3c0,0.9-0.2,1.5,0,2.3
	c0.1,0.4,0.5,0.7,0.6,1.2c0.1,0.3,0.2,0.8,0.3,1.2c0.1,0.4,0.6,0.7,0.6,1.2v5.4c0,2.4-1.2,3.8-2.9,5.6c-0.4,0.4-0.7,0.8-1.2,1.1
	c-0.5,0.4-0.9,0.8-1.5,0.9c-1.4,0.2-2.3,0-3.8,0h-1.2c-0.6,0-0.9-0.3-1.4-0.3c-1-0.1-1.6-0.1-2.6,0c-0.9,0.1-1.5,0.3-2.3,0.6
	c-0.6,0.2-0.8,0.9-1.4,1.2c-0.5,0.2-1,0.1-1.4,0.3c-0.7,0.2-1,0.9-1.8,0.9h-5.4c-1.6,0-2.6-0.4-4.2-0.6c-0.6-0.1-1.2-0.2-1.7-0.3
	c-0.4-0.1-0.7-0.6-1.2-0.6c-1-0.1-1.6,0-2.6,0c-1.5,0-2.4,0-3.8,0.3c-1,0.2-1.6,0.6-2.6,1.1c0,0.4-0.6,1.3-0.6,1.7
	c0,0.6,0.1,1,0,1.4c-0.2,1.1-1.1,1.8-2,2.3c-0.4,0.2-0.7,0.6-1.2,0.6h-6.6c-1.2,0-1.7,1-2.7,1.5c-0.5,0.2-0.9,0.4-1.4,0.6
	c-1.1,0.4-2,0.6-3.2,0.6c-0.6,0-1.1,0.1-1.8,0c-0.9-0.1-1.4-0.5-2.3-0.6c-1-0.1-1.6,0-2.6,0c-1,0-1.6-0.1-2.6,0
	c-0.7,0.1-1.1,0.4-1.7,0.6c-0.5,0.1-1,0.5-1.5,0.6c-0.6,0.1-1.2,0.1-1.7,0.3c-0.4,0.2-0.9,0.2-1.2,0.6c-0.2,0.4-0.4,0.7-0.6,1.2
	c-0.2,0.4,0.1,0.8,0,1.2c-0.1,0.4-0.2,0.8-0.3,1.1c-0.2,0.5-0.4,0.8-0.6,1.2c-0.2,0.4-0.7,0.6-1.3,0.6h-6.3c-0.4,0.4-1,0.4-1.2,0.9
	c-0.4,0.8-0.6,1.5-0.9,2.3c0.1,0.7-0.4,1.6,0,2.3c0.6,0.9,1.2,1.4,1.7,2.3c0.6,0.9,1.6,1.2,2.3,1.8c0.7,0.6,0.3,1.9,1.2,2.3
	c0.7,0.3,1.6-0.1,2.3,0c0.7,0.1,1.5,0,2.3,0c0.9,0,1.6,0.4,2.3,0.6c1.7,0.4,3.1,0.7,4.7,1.7c0.7,0.4,0.6,1.6,1.2,2.3h11.6l4.7,2.3
	c0.4,0.2,1.4,0.2,1.8,0.3c0.5,0.2,0.7,0.7,1.1,0.9c0.8,0.4,1.4,1.3,2.3,1.5c1,0.2,1.6,0,2.6,0c0.7,0,1.1,0.3,1.8,0.3h2
	c0.8,0,1.3,0.1,2,0c0.4,0,0.8-0.2,1.2-0.3c1-0.2,1.7-0.8,2.7-1.2c0.6-0.2,0.9-0.6,1.5-0.6h6.5c1.1,0,1.7-0.7,2.7-0.9
	c0.9-0.1,1.7-0.3,2.7-0.3h1.1c0.9,0.1,1.5,0.3,2.3,0.3c0.3,0,0.5-0.1,0.9-0.1v4.7c0,1-0.6,1.6-1.2,2.4c-0.2,0.3-0.8,0.3-1.2,0.6
	c-0.5,0.2-1,0.4-1.5,0.6c-0.9,0.4-1.5,0.7-2.3,1.2c-0.6,0.3-0.5,1.3-1.2,1.4c-0.4,0.1-0.7,0-1.1,0h-1.2c-0.6,0-0.9-0.5-1.5-0.6
	c-0.5-0.1-0.9,0.1-1.5,0c-0.5-0.1-0.6-0.7-1.2-0.9c-0.5-0.1-0.9-0.3-1.5-0.3h-2.5c-1.4,0-2.3-0.1-3.6,0.3c-0.6,0.1-0.9,0.6-1.5,0.9
	c-1.2,0.5-2.1,0.6-3.4,0.6h-1.6c-0.6,0-0.9-0.3-1.5-0.3c-0.7,0-1.1,0.1-1.7,0c-1.2-0.2-1.7-1-2.9-1.2c-0.8-0.1-1.2,0-2,0h-1.8
	c-0.4,0-0.7,0.2-1.2,0.3c-0.1,1.1-0.2,1.7-0.3,2.9h-6.9c-0.5,0-0.9,0.3-1.2,0.6c-0.5,0.4-1.2,0.7-1.2,1.4c0,1.7,1.5,2.4,2.9,3.5
	c0.6,0.4,0.9,0.8,1.5,1.2c0.5,0.3,0.9,0.8,1.5,0.8c1.3,0.2,2.1-0.1,3.5,0c1.5,0.1,2.4,0.8,3.8,1.5c1.1,0.5,1.8,0.8,2.9,1.2
	c1,0.3,1.8,0.5,2.6,0.9c1.4,0.5,2.2,1,3.5,1.7l1.2,0.6c-1.2,0-2.3-0.4-3.2,0.3c-0.4,0.3-0.9,0.4-1.2,0.9c-0.1,0.3-0.1,0.8-0.3,1.1
	c0.5,0.4,0.4,0.9,0.9,1.2c0.4,0.1,0.8,0.1,1.2,0.3c0.8,0.3,1.5,0.4,2.3,0.9c0.4,0.2,0.5,0.8,0.9,1.2c0.4,0.4,0.8,0.6,1.2,1.1
	c0.2,0.3,0.2,0.9,0.3,1.2c0.2,0.3,0.8,0.3,1.2,0.6c0.4,0.3,0.9,0.3,1.4,0.6c0.5,0.2,0.7,0.4,1.2,0.6c0.4,0.2,0.7,0.4,1.2,0.6
	c1.1,0.5,1.8,0.7,2.9,1.2c0.5,0.1,1,0.3,1.5,0.6c0.6,0.3,0.9,0.8,1.4,1.2c0.6,0.4,1.1,0.7,1.8,0.9c1.3,0.4,2.1,0.3,3.5,0.3h0.6
	c0.6,0,1,0.1,1.5,0c0.5-0.1,0.7-0.6,1.2-0.9c-0.2-0.5-0.4-0.8-0.6-1.2c-0.4-0.6-0.8-1-1.2-1.5c-0.4-0.5-1.2-0.7-1.2-1.5
	c0-0.7,0-1.4,0.6-1.7c0.4-0.2,0.8,0,1.2,0c1.1-0.1,1.9,0,3.1,0c1.7,0,2.6-0.1,4.2,0c1.1,0.1,1.7,0.8,2.6,1.2
	c0.5,0.1,0.7,0.4,1.2,0.6c0.3,0.2,0.8,0.2,1.1,0.3c0.4,0.1,0.7,0.6,1.3,0.6c0.4,0,0.7-0.3,1.1-0.3v-2.3h4.9c0.6,0,0.8,0.6,1.3,0.9
	c0.5,0.3,0.9,0.6,1.5,0.9c1,0.4,1.9,0.3,3,0.3c1.2,0,2.1,0.2,3-0.3c0.5-0.2,0.4-0.9,0.9-1.2c0.4-0.2,0.7-0.4,1.2-0.6
	c0.4-0.2,0.7-0.4,1.2-0.6c0.4-0.1,0.8-0.2,1.2-0.3c0.8-0.1,1.6,0.1,2.3-0.3c0.5-0.2,0.4-0.9,0.9-1.2c0.4-0.2,0.8-0.4,1.2-0.6
	c0.6-0.4,0.9-1.2,1.8-1.2c1.2,0,1.9,0.4,2.9,0.9c1,0.5,1.4,1.2,2.3,1.7c0.4,0.2,0.7,0.6,1.2,0.6h3.4c1.4,0,2.4,0.2,3.8,0.3
	c0.4,0,0.8-0.1,1.2,0c0.5,0.1,0.7,0.5,1.2,0.6c1.5,0.4,2.6,0.7,3.8,1.7c0.4,0.4,0.6,0.9,1.1,1.2c0.4,0.3,1,0.4,1.5,0.6
	c0.4,0.1,0.7,0.3,1.2,0.3h8c0.5,0,0.8,0.2,1.2,0.3c0.4,0.1,0.8,0.2,1.2,0.3c1.4,0.5,2.2,1.3,3.5,2c0.5,0.2,0.7,0.7,1.2,0.9
	c1.2,0.5,2.1,0.3,3.5,0.3h1.1c0.4,0,0.8-0.1,1.2,0c0.5,0.1,0.4,0.9,0.9,1.2c0.7,0.9,1.4,1.7,2.3,2.3c0.4,0.3,0.6,0.7,1.1,0.9
	c0.8,0.2,1.5,0.2,2.3,0.3h1.2c0.9,0.1,1.5,0.3,2.3,0.6c0.5,0.1,0.7,0.6,1.1,0.9c0.8,0.6,1.8,1.1,1.8,2.1v7.9c0,1.1,0.9,1.5,1.5,2.4
	c0.3,0.4,0.5,0.7,0.9,1.2c0.3,0.4,0.6,1,1.2,1.2c0.4,0,0.8,0.2,1.2,0.3c0.6,0.1,1.1-0.2,1.8,0c0.6,0.1,0.9,0.6,1.4,0.9
	c0.5,0.2,1,0.4,1.5,0.6c0.6,0.3,1.1,0.4,1.4,0.9c0.2,0.4,0.4,0.8,0.6,1.1c0.5,0.8,0.7,1.4,1.2,2.3c0.2,0.4,0.1,0.9,0.3,1.2
	c0.2,0.4,0.8,0.2,1.2,0.6c0.9,0.9,1,1.7,1.7,2.6c0.5,0.5,1.1,0.7,1.4,1.2c0.4,0.5,0.4,1.2,0.9,1.7c0.3,0.4,0.6,0.8,0.9,1.1
	c0.3,0.4,0.9,0.5,1.2,0.9c0.5,0.7,0.5,1.4,0.9,2.3c0.3,0.9,0.7,1.4,1.1,2.3c0.2,0.4,0.4,0.7,0.6,1.1c0.6,1.4,1,2.5,2,3.8
	c0.3,0.4,0.7,0.6,1.2,0.9c0.5,0.3,2,1.2,2.3,1.4c0.6,0.5,0.9,1.1,0.9,1.9v0.7c0.1,0.6-0.1,1.2-0.3,1.7c-0.2,0.7-0.9,1-0.9,1.8
	c0,0.7,0.5,1.2,0.9,1.7c0.9,1.3,2.3,1.9,2.3,3.6v5.9c0,0.7-0.8,0.9-1.2,1.5c-0.5,0.8-1.2,1.2-1.2,2.2c0,0.8,0.2,1.2,0.3,2h5.6v4.8
	c-1.2,0-1.9-0.3-3,0c-1,0.2-1.6,0.8-2.3,1.5c-0.3,0.2-0.2,0.8-0.3,1.2c0.3,1.6,1.3,2.6,1.5,4.3c0,1.3-0.6,2.2-0.9,3.5h-4.4v4.7
	c0.6,0.7,0.9,2.5,1.8,2.9c1.4,0.7,2.9,1,4.7,1.2h2.3c0.9,0,1.6,0.6,2.3,0.6c0.9,0.2,1.5,0.6,2.5,0.6h11.5c0.2-1.2-0.2-1.7,0-2.9
	c0.2-0.9,1-1.3,1.2-2c1.8,0,2.9-0.3,4.7-0.3c0.9,0,1.5,0.6,2.3,0.6c0.9,0,1.5-0.3,2.3-0.3c0.1,1.3,0.5,2,0.6,3.2
	c0.2,0.7-0.1,1.6,0,2.3c0.2,1,1.3,1.4,1.8,2.3c0.6,1,1.3,1.8,2.3,2.3c0.9,0.4,1.3,1.6,2.3,1.7c0.7,0,1.6-0.1,2.3,0
	c0.7,0.1,1.6-0.1,2.3,0c0.9,0.1,1.5,0.7,2.3,1.2c0.9,0.4,1.6,0.7,2.3,1.1c0.9,0.6,1.2,1.6,1.7,2.3c0.6,0.7,1.6,0.9,2.3,1.8
	c0.4,0.6,0.3,1.6,0.6,2.3l-0.6,2.3h-4.5c-1.2,0-1.9-0.6-3-0.6h-4.7c-2.8,0-4.5,0.6-7-0.6c-0.9-0.3-1.6-0.7-2.3-1.2
	c-0.6-0.3,0.2-1.9-0.6-2.3c-0.7-0.4-1.6,0.1-2.3,0c-1.6-0.4-2.9-0.4-4.7-0.6c-2-0.1-3.2-0.6-5.2-0.6c-2.8,0-4.5,0.7-7,1.8
	c0.6,1.7,0.9,3,1.7,4.6c0.4,0.9,1.6,1,2.3,1.7c0.9,0.9,2.3,1,2.3,2.3c0,1-1.2,1.3-1.2,2.3c-1.7,0.1-3.1,0.1-4.7,0.6
	c-1,0.3-1.5,1.2-2.3,1.7c-1.2,0.9-2.4,1.9-2.4,3.5c0,1.4,0,2.6,1.2,3.5c2.2,1.6,4.4,0.1,7,0.6c1.9,0.3,3.1,1.3,4.6,2.3
	c2.6,1.7,3.2,5.2,6.4,5.2c1.3,0,1.5-1.5,2.4-2.3c1.6-1.6,2.3-3.2,4.6-3.5c2.9-0.3,4.4,0,7.3,0v-8.1c-2.6,0-4.2,0.3-6.7-0.6
	c-0.7-0.1-1.6,0.3-2.3,0c-0.9-0.3-0.3-2-1.2-2.3c-0.7-0.3-1.6,0.1-2.3,0c-0.7-0.1-1.5-0.4-2.3-0.6l1.2-2.3h4.5c1,0,1.6,0.1,2.5,0.6
	c1,0.5,1.3,1.3,2.3,1.7c0.9,0.3,1.4,1,2.3,1.2c0.7,0.1,1.6,0,2.3,0c1,0.1,1.8,0.6,2.9,0.6h4.7c1.7,0,3.2-0.1,4.7,0.6
	c1.3,0.6,2.3,1.9,2.3,3.5v1.1c-0.1,1-1.9,0.9-2.3,1.7c-0.5,0.7,0.3,1.6,0,2.3c-0.5,1-2.3,1-2.3,2.3v1.2c0,1.1,1.2,1.4,1.8,2.3
	c0.7,1,1.6,1.3,2.3,2.3c0.4,0.7,1.2,1.5,1.2,2.5v6.8h-6.3c-1,0-1.6-1-2.5-0.6c-0.9,0.5-1.3,1.2-2.3,1.8c-1,0.6-0.7,1.9-1.8,2.3
	c-0.9,0.3-1.6,0-2.6,0h-2.6c-1,0-1.3-1-2.3-1.2c-1-0.2-1.6,0.9-2.6,0.9v11.3c-1.3-0.2-2.1-0.3-3.2-0.6c-1-0.3-1.7-1.2-2.9-1.2
	c-1.2,0-0.7,1.9-1.7,2.3c-0.9,0.3-1.5,0.9-2.3,1.2c-0.7,0.3-1.6,0.3-2.3,0.6c-0.7,0.3-1.8,0.3-2.3,0.6c-1.2,0.7-0.6,2.3-0.6,3.8v1.5
	c0,1.1,0.7,1.9,1.1,2.9c0.6,1.1,0.7,2.5,1.8,2.9c0.7,0.3,1.6,0.3,2.3,0.6c0.7,0.3,1.6,0.3,2.3,0.6c1,0.4,1.5,1.2,2.3,1.7
	c0.7,0.4,1.8,0.4,2.3,1.1c1,1.3,0.9,2.9,1.2,4.6c-1.6,0.3-3.2,0.3-4.7,1.2c-1.1,0.6-1.7,2-1.7,3.5c0,2.5,1.7,3.8,2.9,5.8
	c1,1.7,1.2,3,2.3,4.6c0.5,0.7,0.6,1.6,1.2,2.3c0.7,0.9,2.2,0.6,3.5,0.6c1.3,0,2.3,0,3.5-0.6c1-0.4,0.7-2,1.7-2.3
	c0.7-0.3,1.4,0,2.3,0h2.3c1,0,1.4,0.9,2.3,1.2c0,0.9,0.3,1.6,0,2.3c-0.3,0.7,0,1.7-0.6,2.3c-0.6,0.6-1.7-0.3-2.3,0
	c-0.7,0.4-1.7,0.4-2.3,1.1c-0.4,0.6,0.3,1.6,0,2.3c-0.3,0.9-0.9,1.4-1.2,2.3c-0.6,1.3-2.3,1.4-2.3,2.9c0,1.3,0.3,2.3,0.6,3.5
	c0.4,1.7,0.7,3.2,1.8,4.6c0.6,0.9,0.9,1.9,1.8,2.3c0.7,0.5,1.4,0,2.3,0c0.9,0,1.6,0.3,2.3,0c1-0.4,1.6-1.1,2.3-1.7
	c0.7-0.6,1.1-1.6,1.7-2.3c0.6-0.7,0.4-1.9,1.2-2.3c0.6-0.3,1.5-0.6,2.3-0.6c1.3,0,2.2,0.4,3.5,0.6v9.3c-0.9,0.7-0.9,1.9-1.7,2.3
	c-0.7,0.4-1.6,0.1-2.3,0.6c-0.9,0.4-1.5,1.3-2.3,1.7c-0.9,0.4-1.9,0.7-2.3,1.7c-0.4,1-0.6,2.2-0.6,3.5c0,1.4,0.6,2.3,1.2,3.5
	c0.5,0.9,1.6,1,2.3,1.7c0.9,0.9,1.6,1.4,2.3,2.3c2.1,2.5,3.2,4.7,5.3,6.9c0.6,0.8,1.8,0.9,2.3,1.8c0.4,0.7,0.9,1.4,1.2,2.3
	c0.3,0.7-0.1,1.6,0,2.3c0.6,1.9,2.2,2.9,2.9,4.6c0.6,1.4,0.6,3,1.2,4.6c0.9,2,2.9,2.9,4.7,4c0.7,0.5,1.8,0.5,2.3,1.2
	c0.6,0.7,1.3,1.3,1.8,2.3c0.7,1.6-0.7,3,0,4.6c0.4,1,1,1.7,1.8,2.3c2,1.9,4.3,1.4,7,2.3c2.2,0.7,2.9,2.2,4.7,3.5
	c0.9,0.6,0.7,1.9,1.7,2.3c0.7,0.3,1.5,0,2.3,0h2.3c1,0,1.5-1,2.3-1.2c1.2-0.3,2.2-0.6,3.5-0.6h1.2c0.9,0,1.6,0.4,2.3,0.6
	c0.7,0.1,1.8-0.4,2.3,0c0.6,0.4,0.3,1.6,0.6,2.3c0.3,0.7,0.3,1.6,0.6,2.4c0.6,1.3,1.8,1.7,2.9,2.3c0.9,0.5,1.7,1.2,2.9,1.2
	c1.7,0.2,3-0.3,4.6,0c1.2,0.3,1.7,1.3,2.3,2.3c0.4,0.7,0.1,1.6,0.6,2.3c0.6,1,1.2,2,2.3,2.3c1.6,0.3,2.9,0,4.7,0
	c1.8,0,3.1,0.5,4.7,0c1-0.3,1.3-1.3,2.3-1.7c0.9-0.4,1.6-0.6,2.3-1.1c0.9-0.7,1.9-0.9,2.3-1.7c0.5-0.7,0-1.6,0-2.3v-2.3
	c0-3.6-0.1-6.2,1.8-9.3c1-1.7,2.6-2.5,4.1-4c0.6-0.7,0.7-1.5,1.1-2.3c0.6-1.2,1.2-2,1.2-3.5c0-1.3-0.4-2.2-0.6-3.5
	c0-0.9-0.6-1.4-0.6-2.3c0-0.9,0.6-1.4,0.6-2.3c0-1.7,0.1-3.2-0.6-4.6c-0.4-1-1.9-0.9-2.3-1.7c-0.4-0.7-0.9-1.4-1.2-2.3
	c-0.1-0.7-0.6-1.5-0.6-2.3c0-2.5,3.3-2.8,5.8-2.9h2.3c0.8,0,1.4-0.6,2.3-0.6c1.7-0.1,2.9,0,4.7,0c0-1.6-0.1-2.5,0-4
	c0-0.9-0.4-1.6,0-2.3c0.6-0.9,1-1.6,1.8-2.3c0.7-0.7,1.3-1.3,2.3-1.8c0.7-0.3,1.6,0.1,2.3,0c1-0.3,1.3-1.3,2.3-1.7v-11.6
	c0.9-1.2,2.3-1.5,2.3-2.9c0-1.3-0.3-2.3-0.6-3.5c-0.1-0.9-0.7-1.4-1.2-2.3c-0.3-0.7-0.1-1.6-0.6-2.3c-0.5-0.7-2.3-0.1-2.3-1.2
	c0-1.4,0-2.7,1.2-3.5c0.6-0.3,1.6,0.2,2.3,0c1.6-0.4,3.1-0.1,4.7-0.6c0.8-0.3,1.6-0.8,2.3-1.2c0.9-0.6,1.9-0.9,2.3-1.7
	c0.4-0.7-0.1-1.6,0-2.3c0.2-0.7,0-1.5,0-2.3c0-0.9,0.4-1.5,0.6-2.3h14.3c-0.1-2.5-0.4-3.9-0.3-6.4c0-0.9,0.3-1.4,0.3-2.3h8.2
	c-0.2,2.7-0.4,4.2-0.3,7c0,1,0.3,1.7,0.3,2.7c1.9-0.1,3.1-0.4,4.9-0.4c0.9,0,1.3,0.6,2.2,0.6c3,0,4.5-2.5,6.6-4.6
	c0.7-0.9,1.5-1.4,2.3-2.3c0.9-0.9,1.2-1.7,2.3-2.3c0.9-0.5,1.3-1.2,2.3-1.2h2.3c1.8-0.1,3.1,0.3,4.7,0c0.9-0.1,1.5-0.7,2.3-1.2
	c0.7-0.3,1.9,0,2.3-0.6c0.4-0.6-0.4-1.6,0-2.3l1.1-2.3c0.4-1,1.5-1.2,2.3-1.7c0.9-0.6,1.5-1.2,2.3-1.8c0.7-0.4,1.8-0.6,2.3-1.1
	c0.6-0.6,0.6-1.6,1.2-2.3c0.6-0.7,1-1.7,1.7-2.3c0.6-0.4,1.8-0.1,2.3-0.6c1.5-1.3,1.9-3,2.9-4.6c0.4-0.7,0.4-1.7,1.2-2.3
	c0.6-0.4,1.8-0.2,2.3-0.6c0.7-0.4,1.7-0.4,2.3-1.2c0.5-0.6-0.3-1.7,0-2.3c0.6-0.8,1-1.6,1.7-2.3c0.6-0.6,1.6-0.1,2.3-0.6
	c1-0.6,2-1.2,2.3-2.3c0.6-2.6,0-4.2,0-7C1509.9,357.5,1509.7,357.4,1509.9,357.3z"/>
<path class="st0" d="M874,178.2l8.2,8.7l10.5,4.1l11-3.5c0,0-0.6-2.3,4.1-0.6c4.6,1.7,7.6,2.3,10.5,2.3c2.9,0,7.6,2.3,8.2,0
	c0.6-2.3,7.6-4.1,7.6-4.1s4.7,3.5,7,3.5c2.3,0,6.4,1.1,8.8,0c2.3-1.1,0.6-1.7,4.1-1.7h9.3c1.1,2.9-2.9,6.4-0.6,6.9
	c8.2,1.7,12.2-0.6,12.2-0.6h7l9.3-3.5c0,0,0.6-2.9,4.7-2.9c4.1,0,7-6.4,7-6.4l-2.3-6.4l-9.4,4.1l-2.9-8.7l9.9-1.8l2.9-8.1l-3.5-7.5
	h7l12.8,0.6c0,0,3.5,1.1,5.3-1.2c1.7-2.3,0.6-7.5,0.6-7.5s-11.1-6.9-5.3-6.9h9.9c3.5,0,6.4,1.7,6.4-1.1c0-2.9-5.3-7.5-5.3-7.5
	s-6.4,0-9.3-2.3c-2.9-2.3-9.3-1.8-9.3-1.8l-7.6,4.1l-5.8,3.4l-2.3-5.8l9.3-2.3c0,0-1.8-3.5,0.6-4c2.3-0.6,7-3.5,7-3.5h8.7l4.1,4.6
	l11.7,1.7c0,0,5.3,0.6,7.6-1.7c2.3-2.3,8.7-5.8,8.7-5.8l-10.5-7.5l11.6-0.6l4.7,5.2l9.3-0.6l11-3.5l-4.6-8.1l-7.6-2.9h13.4h8.2
	l4.7-5.2l9.9-2.9l9.9-6.3c0,0,9.9-3.5,12.8-4.1c2.9-0.6,10.5-7.5,10.5-7.5l10.5-0.6l5.8-3.5l-4.6-5.8c0,0-5.3,2.9-7.6,2.9
	c-2.3,0-9.9,4.6-12.2,2.9c-2.3-1.7-0.6-2.3-5.2-2.3s-14.6,0.6-14.6,0.6l2.3-5.2l11-2.3h12.8h12.8c0,0,7.6-2.9,12.2-2.9
	c4.7,0,11.7-3.5,11.7-3.5l12.8-0.6c0,0,2.3-4.3,3.5-6.4c2.3-4-2.3-8.1-2.3-8.1l-9.9,2.3l-8.8-1.2l-2.3-5.8L1152,26l-8.7,2.3H1131
	l-13.4,3.5l0.6-5.2l-9.9-0.6c0,0-7.6,2.9-8.7,0.6c-1.2-2.3-2.9-4-2.9-4l-8.7-0.6c-5.8-2.9-11.6-2.9-11.6-2.9s0.6,8.7-1.8,8.1
	c-2.3-0.6-4.1,2.3-6.4-0.6c-2.3-2.9-1.2-4.6-5.3-4.6c-4.1,0-5.3,0.6-7.6,0.6c-2.3,0-1.7,6.4-1.7,6.4c-3.5,2.9-11.1-0.6-11.1-0.6
	C1036,22,1032,22,1032,22l-11.1-0.6c0,0-8.4-2.8-9.3,0c-1.8,5.2,1.1,11,1.1,11h-5.2l-7-4.1c0,0-1.8-2.3-5.3-2.3h-10.5l-0.6,4.6h-9.3
	c-5.2-1.7-15.1-1.1-15.1-1.1c-3.5,4.1-11.1,4.6-11.1,4.6l-5.2,6.9h13.4c3.5,3.5,16.9,6.4,16.9,6.4s2.9-2.3,4.1,0.6
	c1.1,2.9,3.5,6.9,3.5,6.9s-9.3,1.1-11.7-1.2c-2.3-2.3-5.3-5.2-8.1-5.2h-12.8c0,0-7-0.6-8.7-2.9c-1.8-2.3-2.9-6.9-5.8-6.4
	c-2.9,0.6-9.3,1.2-9.3,1.2l-7-4.1c0,0-2.3-0.6-5.2,0l-5.8,1.2l-1.2,5.2c0,0,2.3,6.4,0,6.4h-8.1l-9.9-2.9h-5.2l-5.3,4.6
	c0,0-2.9,2.3-5.2,2.3h-5.8h-6.4l-1.2,4.6l-11.7-0.6l-0.6,5.2l7.6,1.2l4.1,1.2l-0.6,7l9.3,1.7c0,0,2.9,6.4,5.2,6.4
	c2.3,0,9.9,0.6,9.9,0.6s4.6,1.7,8.7,2.9c4.1,1.2,9.9,1.2,9.9,1.2l5.8-6.9l3.5-4.1l11.6-1.1l-7.6,5.2l-5.3,6.9l1.2,6.9l16.9-0.6
	c0,0,12.8,3.5,14,0c1.2-3.5,5.3-6.9,5.3-6.9l11.1,1.2h14.6l8.8-5.8l5.8-5.2l1.1-4.1c0,0,4.7,0.6,7.6,0c2.9-0.6,10.5-4.1,10.5-4.1
	l9.9,1.2l-7,0.6l-8.8,4.6c-5.2,3.5-9.9,6.4-9.9,6.4l12.8-0.6l5.8,1.2l5.3,0.6l-3.5,4.6H997l-10.5,0.6l-6.4,2.3l-5.9,0.6
	c-4.6,2.3-13.4,3.5-13.4,3.5h-7l-7,1.1v5.8l7.6,1.2l5.3,3.4l2.9,5.8l15.7,2.3l-7,1.2l-9.3-0.6c0,0-8.2-5.8-11.1-7
	c-2.9-1.2-12.8-8.1-15.1-8.1c-2.3,0-11.7-0.6-11.7-0.6l-17.5-1.7l-1.2,6.4l6.4,5.2l8.7,6.9l15.1,9.3l9.9,4.1l15.7,1.1
	c0,0-1.8,4-4.1,4c-2.3,0-5.8-0.6-5.8,2.3v6.9l-14.6-9.8l-9.9-1.7l-12.2,1.1l-8.7,1.7l-8.7,4.1v6.4l0.5,4.6l8.8,1.7h12.8l10.5-1.2
	l-9.9,5.2l2.9,6.4l8.7,1.2c0,0,3.5-0.6,6.4-1.7c2.9-1.1,12.2-8.1,12.2-8.1l-3.5,7.5l-9.3,6.4l-10.5,0.6l-16.3-5.2
	c0,0-7.6-5.8-12.3-5.8c-4.6,0-13.4,0.6-13.4,0.6l2.9,6.4c0,0,4.1,9.2,1.8,9.2c-2.3,0-11.1,1.7-11.1,1.7L874,178.2z"/>
<path class="st0" d="M879.3,140.6h5.3c2.9,0,1.2-5.8,1.2-5.8l1.2-6.4l8.7,3.4c0,0,2.9-2.3,2.9-4.6c0-2.3,7.6-0.6,10.5,0.6
	c2.9,1.2,7.6-5.2,7.6-5.2V114l-11.6-3.4c0,0-2.3,0-7.6-2.3l-3.5-5.8v-4.6l-7-4c0,0-3.5,4.6-5.9,4c-2.3-0.6-4.1-3.4-4.1-5.8
	c0-2.3-3.5-4.1-5.8-5.2c-2.3-1.2-7-1.2-12.2-2.9c-5.2-1.8-6.4-5.8-6.4-5.8l-5.8-5.2c0,0-7.6-6.4-9.9-6.9c-2.3-0.6-6.4-0.6-6.4-0.6
	s-12.2,1.7-11.6,5.2h8.7c3.5,0,2.3,1.2,2.9,4.1c0.6,2.9-7,1.7-7,1.7h-11.1l-4.6,1.7c0,0,4.6,3.5,7.6,4.6c2.9,1.2,0.6,5.2,0.6,5.2
	l-9.3-0.6l-6.4,1.2l1.8,7.5l-5.8,3.5v6.9l7.6,0.6v7.5l9.3,4.7l8.2-1.1l8.1-2.3l11.1-0.6l5.3,5.8c0,0-7.6,2.9-9.9,2.9h-9.9l-7,3.5
	l9.9,5.2l5.3,8.1l16.9,3.5l12.8-1.7l11.7,2.9L879.3,140.6z"/>
<path class="st0" d="M849,160.3l-5.3,8.1l16.9,2.3l9.3-4.1c0,0-5.3-6.9-7.6-8.7L849,160.3z"/>
<path class="st0" d="M858.3,230.4l15.7-1.2l7.6-4.6c0,0,7.6,5.2,10.5,7.5c2.9,2.3,16.9,0.6,16.9,0.6h19.3l8.7-2.3l4.1-4.1l5.8,4.6
	l9.9-0.6c0,0,14-1.7,16.9-1.7c2.9,0,1.2-4,1.2-6.4c0-2.3,6.4-4.1,6.4-4.1l-1.8-9.3l-15.2-4l-16.3-3.5l-12.2,4.1l-18.1,4.1l-11.6,1.2
	l-16.3-2.9l-13.4,0.6l-11.1-8.7l-1.2-8.7l-4.1-8.1h-14.6l-9.9,1.2c0,0,2.9,9.8,4.1,12.2c1.2,2.3,6.4,11,6.4,11l-5.2,9.3l6.4,6.9
	L858.3,230.4z"/>
<polygon class="st0" points="777.3,232.7 785.5,232.7 782,227.4 "/>
<polygon class="st0" points="795.4,218.2 803.5,225.7 812.3,225.7 820.4,229.2 827.4,226.3 829.8,217.6 821.6,213 816.9,206.6
	809.4,207.8 797.7,212.4 "/>
<polygon class="st0" points="823.9,193.3 830.3,186.9 829.8,181.7 821.6,175.4 810.5,175.4 804.1,172.5 793.6,174.2 792.5,181.7
	803,187.5 812.9,192.7 "/>
<polygon class="st0" points="800,165.5 814,164.9 821.6,163.2 830.9,161.5 830.9,155.7 818.1,155.7 806.5,155.7 800,160.9 "/>
<polygon class="st0" points="802.4,151.1 811.7,149.3 814,144.7 804.1,137.7 790.1,136.6 779.1,129.6 773.8,133.7 778.5,140
	782,150.5 792.5,152.2 "/>
<polygon class="st0" points="769.7,107.6 766.8,99.5 759.2,97.2 751.7,97.2 751.7,104.2 760.4,104.2 762.8,110.6 "/>
<polygon class="st0" points="762.2,157.4 765.1,152.2 763.3,145.3 756.9,140.6 754,133.7 745.3,130.2 738.3,126.2 731.3,127.3
	724.9,122.7 716.1,118.1 709.1,119.2 691.6,122.7 695.7,128.5 702.2,127.9 708.6,130.8 710.3,137.7 700.4,137.7 703.9,144.1
	710.3,143.5 715,147.6 721.4,144.7 727.2,145.3 741.2,146.4 751.7,155.1 "/>
<polygon class="st0" points="740,158.6 732.4,153.4 721.4,153.9 723.1,160.3 732.4,160.9 "/>
<path class="st0" d="M734.8,208.9l7-2.3l5.9-1.2l4.6,5.2l4.1,10.4l5.8-2.9l9.9-0.6l7-1.2l0.6-6.4v-9.2c0,0,1.7-2.9,4.1-4.6
	c2.3-1.8-2.3-6.9-2.3-6.9s-7-4.7-9.9-4.7c-2.9,0-6.4,4.1-6.4,4.1l-11.1-7h-9.3l7,5.8c0,0,6.4,6.9,8.2,10.4c1.7,3.5-7,0.6-7,0.6
	l-11.7-11h-8.7l0.6,6.9l2.3,7.5l-10.5-6.4l-5.2-11.6l-15.2-5.2l-0.6,9.8l4.1,5.8c0,0,12.8,8.1,14,10.4L734.8,208.9z"/>
<path class="st0" d="M701,213.6l2.3,6.4l7.6-0.6c0,0,2.9-2.9,2.9-5.2c0-2.3-9.3-5.2-8.7-2.9C705.6,213.6,701,213.6,701,213.6z"/>
<path class="st0" d="M705.1,170.1l-7.6-9.8l-9.3-5.2c0,0-1.2,4,0.6,7.5c1.7,3.5,9.9,10.4,9.9,10.4L705.1,170.1z"/>
<path class="st0" d="M1008.7,378l9.9,1.2l10.5-2.3l5.3-8.1l-4.7-8.7c0,0-14.6,0.6-16.9,0.6c-2.3,0-9.3,9.9-9.3,9.9L1008.7,378z"/>
<path class="st0" d="M820.4,280.1l7.6-5.2l1.2-8.1l11.7,2.3l7-5.2l5.3-9.3l7.6-8.1c0,0-7.6-4.6-10.5-4.6h-10.5l-10.5-3.5
	c0,0-12.8,0.6-15.2,0.6c-2.3,0-0.6,4-0.6,7.5c0,3.5-7.6,5.8-7.6,5.8v14.5c0,0,3.5,12.7,3.5,15L820.4,280.1z"/>
<path class="st0" d="M769.2,298.1c2.3,0,8.2-6.9,8.2-6.9l13.4-0.6l5.2-9.3l-4.7-7.5l-7.6-7l-8.2-4.6l10.5-4.6c0,0,1.8-2.3-0.6-5.2
	c-2.3-2.9-8.2-7.5-8.2-7.5l-4.1-4.6l-9.3,0.6l-1.2,6.4h-4.1l-8.1-2.9l-8.8,2.3l1.8,6.4l7.6,7l-2.9,8.1c0,0-3.5,3.5-5.8,2.3
	c-2.3-1.2-8.1-6.4-8.1-6.4l-7,0.6l-1.2,6.3l8.8,5.2l6.4,4l9.9,2.3c0,0,4.6,6.9,4.6,9.2C755.8,294,769.2,298.1,769.2,298.1z"/>
<path class="st0" d="M703.9,261.6l2.3-8.7l-4.6-4.1l-18.1-2.9l-4.6,5.2c0,0,7.6,5.8,9.9,6.4c2.3,0.6,8.7,8.7,8.7,8.7L703.9,261.6z"
	/>
<polygon class="st0" points="665.4,248.3 661.4,252.3 669.5,253.5 672.4,247.7 "/>
<path class="st0" d="M608.9,142.9h10.5h14h16.9c0,0,0.6-5.8-2.3-6.4c-2.9-0.6-10.5-3.5-10.5-3.5l-11.1,0.6l-9.3,2.3L608.9,142.9z"/>
<polygon class="st0" points="620.6,168.4 627,166.1 639.8,165.5 642.7,160.9 636.9,155.7 642.7,155.1 646.8,149.9 639.8,149.9
	625.2,149.9 616.5,152.2 608.4,156.8 614.8,167.3 "/>
<polygon class="st0" points="600.2,158 599,150.5 590.3,147 584.4,147.6 586.8,153.4 591.4,157.4 "/>
<path class="st0" d="M588.5,186.9l-11.1,3.5l-5.8,8.1l-5.8,5.8l-6.4,6.4l1.2,7l12.8,0.6l11.1,2.3l9.9-1.2l8.7-2.9l15.2,2.3h9.9
	c-2.9,3.5-11.7,3.5-11.7,3.5h-11l-7.6,3.5l1.2,5.2l7,2.9h14.6l14.6-5.2l9.3-7l10.5-1.1h14h14l5.2-6.4l3.5-12.2l-4.6-4.6h-6.4
	l-1.2,5.2l-8.1-2.9l-9.9-7.5v-5.8l-3.5-6.9h-8.8l-3.5,4.1l-6.4,1.7l0.6,4.6l7,4.6c0,4.1-1.8,8.7-1.8,8.7l8.8,1.2c0,0,2.3,4.1,0,4.6
	c-2.3,0.6-7,0.6-7,0.6h-11.7l-7.6-4.6l-7.6-9.3l-9.3-3.5h-8.2l-8.2-4L588.5,186.9z"/>
<path class="st0" d="M592,175.9l1.2,4.6l12.8,1.2l-0.6-5.8C605.4,175.9,592.6,178.2,592,175.9z"/>
<polygon class="st0" points="545.4,200.8 539.6,207.8 550.6,209.5 556.5,197.9 "/>
<path class="st0" d="M564.1,186.4l9.9-3.5l2.9-11l3.5-7.5l-12.8-2.9l-6.4,5.8h-13.4l-8.8-0.6c0,0-6.4,9.8-8.2,12.2
	c-1.7,2.3-8.7,8.7-8.7,8.7h-10.5l-9.9,4l4.1,7l11.7,4.1l4.6-5.8l7,4.6l6.4-3.5l1.2-4.6l7.5-0.6l2.3-7l6.4-4.6l5.3,7.5L564.1,186.4z"
	/>
<path class="st0" d="M572.2,337.4l14.6,0.6H599l6.4,11l8.1,4.6h15.7l14.6-0.6l9.9-5.2l10.5-2.9l10.5-5.8l5.8-3.5l4.7,4.1l6.4-1.2
	l16.3,8.1l11.1,0.6l9.9-1.2l4.1-7.5l-8.2-6.4l6.4-0.6l9.9-1.7l2.3-5.2l-9.3-5.8l-19.2-6.4l-9.9-9.8l1.8-9.8l-8.8-6.4l-1.7-13.3
	l-7-8.7l-12.8-5.2h-11.1v9.8l2.3,6.9l5.3,9.3l-3.5,4.1l-4.7-0.6l-4.7-4.1l-1.1-6.9l-2.9-5.8l-8.7-9.2l-8.7-0.6l2.3,6.4l3.5,5.2h-9.9
	l-0.6,4.6l-8.2,1.2l1.7-5.2l2.3-6.4l-7-0.6l-8.7-2.9l-8.7,0.6l-1.2,6.4l-7-1.1l1.7-4.1l-1.7-8.1l-4.7-1.8h-10.5l-7,5.8l-7,2.9
	l-9.3,2.3l-8.1,5.2l1.7,8.1l-9.9,5.8l0.6,4.6h7l4.7,4.6l8.7-2.9l11.1-1.2l7,5.2l-11.1,2.9l-9.9,2.3l-4.7,4.6l12.8,5.2h12.8l14-1.2
	h12.2c0,0,7.6,3.5,9.9,4c2.3,0.6-1.2,5.8-1.2,5.8l-20.4-0.6h-18.6l-13.4,5.8L572.2,337.4z"/>
<polygon class="st0" points="669.5,360 678.9,355.4 688.2,353.6 688.8,346.1 673,350.2 657.9,357.7 "/>
<path class="st0" d="M506.9,297.5h12.2l7.6-5.8l2.9-11c0,0,10.5-4.6,11.1-6.9c0.6-2.3,7.6-7.5,7.6-7.5l21-8.1l12.8-4.1l-1.2-7.5
	l-16.3-9.2l-9.3-1.2l-11.1,4.6l-12.8-4.1l-12.8-4.6l-15.7-1.2l-20.4,1.7v5.8l2.9,10.4l-3.5,15.6l-16.3,20.2l20.4,5.8l11.1,15.1
	L506.9,297.5z"/>
<polygon class="st0" points="21.6,507 18,498.9 9.3,498.9 5.2,501.8 7,508.8 16.9,509.4 "/>
<path class="st0" d="M217.3,494.3c0,0-2.3-2.3-2.3-4.6c0-2.3,5.3-1.7,5.3-1.7l14.6,0.6l12.8,8.7l13.4,6.9l14,3.5l11.7-2.9l9.9,4.1
	h9.3l9.3,7.5l14.6,6.9l7.6,8.1c0,0,8.8,2.9,11.1,2.9c2.3,0,5.8-2.3,5.8-2.3l8.7,5.2l5.8,8.1l13.4,3.5l-2.3,7.5l12.8,5.2l-2.3,6.9
	l8.2,2.9l8.2,1.2l0.6,8.1l6.4,8.7l1.8,9.9l3.5,9.3l10.5,1.1l2.9,11l11,10.4l2.9,7.5l11.1,5.8l11.1,4l9.3,2.9l1.7,5.8l11.7,7.5
	l8.7,6.4l4.7,13.9v11l-6.4-7l-7.6-9.3l-1.7-5.8l-9.3-5.8l-6.4-2.3l-1.2-9.3h-7.6l-6.4-4.6l-5.8-2.3l-5.8-1.7l-7,1.1l5.8,7.5l7.6,4.6
	l7.6,6.4l15.7,10.4l5.2,11l5.8,13.9l-0.6,11l-1.2,15.1v16.8l-5.2,4v11l6.4,11.6l-2.3,11l1.8,8.7l4.6,7.5l-0.6,11l6.4,9.3l8.7,7.5
	l5.3,15.6l7.6,6.4l1.8,8.1l7,9.3h10.5l7.6,6.3l11.6,5.2l8.2,8.1l2.3,9.8l4.1,9.8l5.2,16.2l7,6.9l8.7,8.1l2.3,5.8l-7,5.2l4.7,6.4
	l8.8,6.3l11.1,7l6.4,7.5l-1.2,6.4l2.3,5.2l8.8,3.5l8.2,6.9l5.8,5.8l0.6,6.9l4.7-2.3l1.2-7.5l-3.5-8.7l-7.6-3.5l-1.2-7.5l-8.8-6.4
	l-3.5-9.8l-3.5-9.3l-7.6-6.9l-2.3-9.3l-7.6-2.9l-4.6-11.6l-8.8-9.8l-1.2-12.7l7-0.6l9.9,4l5.8,7l0.6,11l10.5,14.5l11.1,11.6l9.9,8.1
	l7,8.1l1.7,9.2l10.5,5.8l7.6,8.7l5.8,9.3l12.2,12.7l4.7,11l6.4,5.2l-6.4,4.1l-1.8,6.9l13.4,10.4l11.1,8.7l13.4,4.1l14,8.1l16.3,6.9
	l18.1,8.7l14.6,4.1l9.3-0.6l2.9-4.6l10.5-1.1l11.6,5.8l12.8,9.8l7,8.1h10.5h4.1l5.8,2.3l6.4,8.7l12.8,4.1l0.6-5.8l7,3.5l7,9.8
	c0,0,10.5,11.6,12.8,13.3c2.3,1.7-1.2,10.4-1.2,10.4l4.1,4.6l5.3-2.3l7,3.5l9.9,9.3c0,0,7,6.4,10.5,2.9l17.5,8.7l9.3,4.1l-0.6-9.3
	l4.7-5.8l16.3,1.2l1.8,5.8l5.2-0.6l2.9-7.5l-5.8-7H983l-11.1-0.6l-16.3-1.2l-7.6-5.2l-10.5-11l0.6-8.7v-11.6l3.5-14.5v-9.8l-5.2-7.5
	l-10.5-5.2l-15.7,1.2l-11.1-2.3l-12.2,4.6l-8.2-5.2l7.6-5.8v-10.4l2.9-6.4l4.1-10.4V1039l7-4.6l1.2-8.7l-5.3-3.5l-17.5,1.1
	l-11.1,1.7l-4.7,8.1l-4.6,12.2l-5.2,11l-9.3,1.2l-13.4,3.5l-14,1.7l-6.4-8.1l-11.7-5.8l-4.1-9.2l-8.2-12.2l-4.6-20.8l-1.7-15.1
	l5.8-11.6l2.9-13.3l-5.8-13.9l10.5-13.3l8.7-0.6l8.8-6.9l8.7-8.1l12.2,1.7l8.7,2.9l7-2.9l5.8,7.5h10.5l8.2-0.6l-1.8-5.8l2.9-9.3
	l12.8-0.6l8.8-1.1l16.3,1.7l6.4,8.1h5.3l3.5-4.6l4.7-1.2l7.6,6.9l7,8.7v9.8l4.1,5.8l1.7,6.4l5.3,4.6l2.9,6.9l6.4,3.5l0.6,7.5
	l5.8,1.7l3.5-5.2l2.9-8.1l-3.5-9.8l-3.5-15.1l-7.6-13.3v-17.4c0-2.3,4.1-12.2,4.1-12.2l6.4-12.8l9.9-4.1l11.6-9.8l11.1-7.5l10.5-4
	l1.7-7.5l8.2-4.6l-7-12.7l-5.2-5.8l2.3-7l-4.7-6.4l8.2-4l7,9.3l4.1-9.3l4.6-8.1l5.3-5.2l5.2-17.4h15.7l9.9-5.8l11.6-1.2l-2.9-7
	l-0.6-14.5l8.2-11h9.3l2.9-6.3l12.2,0.6l11-6.4l7-8.7l13.4-1.2c0,0,12.2,2.3,14.6,2.9c2.3,0.6-3.5,4.7-3.5,4.7h-15.2
	c0,0-5.8,4.6-8.2,5.8c-2.3,1.2,0,9.9,0,9.9l6.4,2.9l7-5.8l5.3-3.5l9.9-2.9l10.5-5.2l10.5-2.3l8.1-9.8l8.2-7l1.1-8.1l-11.1,2.9
	l-7.6,12.2l-12.8,0.6l-10.5-5.2l-11-8.7l-5.8-15l9.9-7.5l-0.6-12.1l-14.6-1.2l-15.7,4.6l-17.5,9.9l-16.9,16.2l-13.4,9.3l5.3-8.7
	l8.1-9.3l5.3-4.6l-13.4-3.5h16.9l4.1-8.1l9.3-7.5l11.1-0.6l4.6-9.3l9.3-3.5h14.6l26.2-0.6l13.4,2.3l10.5-0.6l10.5-7.5l9.3-10.4
	l16.9-1.7l8.7-3.5l4.7-4.7l-5.3-4.6l3.5-4.6l0.6-9.8l-12.2-1.7l-2.3-5.8h-13.4l-10.5,5.8l-7,4.6l-5.8-2.3l2.3-7l12.2-4l14.6-3.5
	l6.4-5.8l-9.3-0.6l-9.3-4.6l-12.3-3.5l-7.6-6.9l-8.8-7l-3.5-6.4l5.2-1.2l1.8-4.6l-8.2-11l-9.9-12.2l-14-21.4l-4.7-9.8l-10.5,12.8v11
	l-11.1,4.1l-7,7.5l-10.5-0.6l-2.3-6.9l-7-5.2l-10.5,2.3l2.9-12.1v-16.2l-0.6-8.7l-12.8-0.6l-9.9-6.4l-9.3-9.3l-16.3-9.8l-5.8,4.6
	l-14-0.6l-5.8-3.5H1004l-6.4,6.4l5.8,9.2l-2.3,12.1l1.7,8.1l5.2,11h-8.1l0.6,10.4l-5.3,5.8l7,4.7l10.5,7.5l2.9,13.3v15.1l-7.6,10.4
	l-10.5,8.1l-14.6,1.7l8.1,12.8v16.2l4.1,9.2l-2.3,7.5l-6.4,9.3l-14,1.7l-8.2-13.3l-9.9-11.6v-9.8l-2.9-13.9l1.7-11.6l-18.1-2.3
	l-13.4-0.6l-7-4.1l-16.9-4l-6.4-6.9l-14.6-7.5l-15.1-8.1l-19.8,4.6l-4.7-7.5l-8.1-17.4l-9.9-4.6l-6.4-6.9l2.3-21.4l9.9-16.2
	l9.9-14.5l12.8-5.2l9.9-7.5l-4.1-8.1l-15.7-3.5l-18.1-5.8l21,2.9l16.9,4l7.6-1.7l1.8-8.7l13.9,4.6l8.2-1.7l0.6-7l5.2-2.9l2.9-9.2
	l-9.9-1.2l-12.8-1.2l-4.7-5.2l-14.6-5.8l9.9,0.6l15.7,4.1l10.5,3.4l10.5-3.4l7-8.7l-7.6-7h10.5l6.4,6.4l-5.3,7l-4.7,12.7V433
	l-10.5,3.5l2.9,6.9l11,0.6v6.4c0,0,11.1,2.3,14.6-1.2l4.1-8.1l14,0.6l7.6,1.2l7.6,3.4h11.1l1.2-8.7l-11.1-2.3l-5.3-11l-13.4-1.1
	l-10.5-8.7l-9.9-2.3v-6.3l9.3,1.7l4.1-4.6l-1.2-5.2h11.1l4.1-7.5l10.5-7.5l3.5-6.4l-5.8-6.9l-5.3-11.6l9.9-1.7l2.9-8.7l-7.6-8.7
	l-10.5-4.6l-13.4-6.9h15.2l1.7-4.6l11.1,1.2l8.8,5.2l12.2-0.6l11-2.3l-9.3-8.7l6.4-1.8l9.9,9.9l11.1,1.2l4.7,9.2l8.1,1.7l4.7,7
	l8.7,3.5l4.7,8.7l9.9,3.5l8.2,8.7l1.8,10.4l-11.7,11l-9.9,11l5.2,10.4l-17.5,2.3l-9.3-2.3h-9.9l-12.2,8.7v9.3l14.6,2.3l11.7-0.6
	l2.9-5.2l5.3-2.9l7.6,1.7l14,4l13.4,12.7l2.9,6.9l8.2,8.7h11.7l12.2,11.6l18.1,0.6l11.6,5.2l1.2-6.9l-19.2-14.5l-8.2-6.4l-4.1-6.9
	l12.8,6.4l21.6,11l11.1,6.4v-10.4l6.4-9.3l-10.5-5.8l-2.3-14.5l-14.6-5.2l-17.5-18.5l5.8-5.2l5.8-4.6l23.3,17.4l8.2,11l9.9,1.7
	l2.9-12.7l12.2-4.6l1.7-5.2h8.2l3.5-5.8l-0.6-8.7H1173v-4.6l-9.9-7.5l-7-1.1l-10.5-4.6h-8.2l-2.3-6.4l-2.9-5.8h-14l-5.8-0.6v-9.8
	h9.9l5.2-4.6l-13.4-3.5l1.7-4.1l6.4-1.2l-7.6-6.9l-10.5-2.9l4.1-6.4l-11.1-4.6l-12.2,0.6l-1.7-5.2l-9.9-0.6l-4.1-1.2l8.2-5.2
	l-11.1-3.4l-14,3.4l-9.3-9.3l-1.2-5.2l-8.7-0.6l-0.6-6.4l-14-4.7h-18l-2.4,5.2l-9.3,1.2l-8.7-1.7l-2.9,6.4l-8.7,0.6l-0.6-8.1
	l5.3-7.5l-8.8-10.4l-4.1-9.2H944l-7.6,6.9l-11.1,0.6l-7.6,4.6l-1.8,9.3l7,9.8l-4.7,6.4l9.3,12.1l-7.6,1.2l-10.5-10.4l-3.5-13.9
	l-1.2-9.3l7.6-9.9l11.1-8.1h-15.1l-16.3,1.7l-14.6,11.6l-8.7,16.2l-0.6,20.3l13.4,2.3l9.3,0.6l4.1,7.5l-10.5-1.7l-11.1,2.9l9.3,9.3
	h12.8l6.4-2.3l8.8,5.8l16.3,5.2l-9.9,2.9l-0.6,8.1l7,5.8l-11.1,15.6l-5.3,11l-8.1,8.7l-7.6-3.5l-5.8-13.3l5.8-8.1L877,340.3
	l-11.6,9.8L849,332.2l-5.8-2.3l1.1-9.3l-2.3-10.4l-7.6-1.2l-0.6-8.7l-12.2-9.8L807,290l-2.3,5.8l-6.4,0.6l-6.4,9.3l3.5,7.5l-1.8,5.8
	l11.7,9.9l11.1,6.4l-3.5,8.7l-12.2-2.3l3.5,9.8l10.5-0.6l11.6-7v10.4l-20.4,10.4l1.8,15l-12.8-8.1l3.5-10.4h-8.1l-0.6-9.9h7.6
	l-2.3-14.4l-18.6-8.7l-4.1,10.4l-9.9,4.6l16.9,11l-8.2,6.4l-2.9,8.1l-31.5,1.2l-15.7-6.4l-11.7-1.7l-15.1-8.7l-10.5,6.4l-16.3,7
	l4.1,9.8l-2.3,15l-9.9-17.9l-15.7-6.9l-17.5,3.5l-38.5-3.5l-0.6-5.2l13.4-4.6l-19.3-9.8l-12.2,0.6l-34.4-9.9l-8.7-7.5l-15.7-1.7
	l-9.3,0.6l-4.1,6.4l-8.7,1.7l-8.7-14.5l-5.8,12.7l-10.5-1.7l-9.9-16.8l-11.6-2.9l-3.5,11l-7.5,6.9l-11.7,1.7l-15.2,5.2l-15.1,7.5
	l12.2-11.6l12.8-3.5l9.3-3.5l4.1-5.8l-5.2-1.2l-15.7,5.2l-17.5,7.5l-9.9,0.6h-9.3l-19.2,10.4l-18.1-1.7l-14.6-11l-26.2-1.2l-9.3-5.8
	l-13.4-2.3l-16.3,3.5l-10.5-5.8h-16.9l-18.1-4.6H190h-12.8l-3.5-8.1l-25.6-1.1l-10.5,1.1l2.9-6.4l-15.1-0.6l-13.4,7.5h-21
	l-15.7,11.6H62.9l-10.5,8.1L51.3,338l-12.8,8.7l-21,0.6l-4.1,11.6l23.9,10.4l8.2,11l13.4,5.2l8.7,13.3l-12.8,1.7l-12.2-2.3l-1.2-9.9
	l-14.6,7.5l-12.2,1.2L0,408.7l7,4.1l7.6,5.8l4.7,12.7l37.9-4.1l9.3-5.8l9.9,1.1l-2.3,11v12.7l-13.4,0.6l-13.4,4.6l-11.6-1.1
	L32,463.1l-14,12.7l2.9,8.7l6.4,1.2l2.3,6.9l5.2,11l15.7,5.2l7.6-8.7l8.8,11.6l-1.8,16.2h8.2l5.2-2.9l12.2-0.6L99,529l4.7-8.1
	l7.6,6.4l9.3-5.2c0,0-5.8,11-5.8,14.5c0,3.5-6.4,8.7-9.9,10.4c-3.5,1.7-18.1,13.9-18.1,13.9l-6.4,8.1l-11.7,0.6l-11.7,8.1l-15.7,3.5
	l-13.4,11l7.6,3.5l13.4-9.9l8.7-0.6l14.6-7.5l16.3-6.9l33.2-15.6l4.6-9.8l34.4-19.1l-8.8-12.7l17.5-9.8l9.3-15.6l15.2-3.5l8.2,4.6
	l-18.1,6.9l-4.6,9.3l2.3,10.4l22.7-11l16.3-2.9L217.3,494.3z"/>
<polygon class="st0" points="169.6,541.8 169.6,531.3 161.4,537.2 145.1,546.4 150.3,557.4 160.8,551.6 "/>
</svg>
